Curso,Discente,Orientador,Coorientador,Defesa
MESTRADO,ALEXIS ARMIN HUF,FRANK AUGUSTO SIQUEIRA,,2018-02-16
MESTRADO,GERSON LUIZ CAMILLO,CARLA MERKLE WESTPHALL,,2018-03-01
DOUTORADO,FERNANDO LUIS BORDIGNON,MAURO ROISENBERG,AMILCAR DE OLIVEIRA SOARES,2018-03-01
MESTRADO,DAVI RESNER,ANTÔNIO AUGUSTO MEDEIROS FRÖHLICH,,2018-03-02
MESTRADO,JEAN CARLOS OLIVEIRA DE ABREU,RENATO FILETO,,2018-03-13
MESTRADO,GABRIEL BEIMS BRÄSCHER,CARLOS BECKER WESTPHALL,,2018-02-26
MESTRADO,RODOLFO LORBIESKI,SILVIA MODESTO NASSAR,,2018-03-16
MESTRADO,THAISA CARDOSO LACERDA,CHRISTIANE GRESSE VON WANGENHEIM,JEAN CARLO ROSSA HAUCK,2018-04-09
DOUTORADO,MATEUS KREPSKY LUDWICH,ANTÔNIO AUGUSTO MEDEIROS FRÖHLICH,,2018-04-24
MESTRADO,BRUNO CESAR NEVES DE OLIVEIRA,FRANK AUGUSTO SIQUEIRA,,2018-06-25
MESTRADO,RODOLFO WILVERT REITZ,PAULO JOSÉ DE FREITAS FILHO,,2018-06-21
MESTRADO,TIAGO AUGUSTO FONTANA,JOSÉ LUÍS ALMADA GÜNTZEL,,2018-07-06
MESTRADO,FELIPE DEMARCHI,RICARDO AZAMBUJA SILVEIRA,ELDER RIZZON SANTOS,2018-08-13
MESTRADO,SAMUEL ANTÓNIO MIQUIRICE DOMINGOS,RAUL SIDNEI WAZLAWICK,,2018-08-27
MESTRADO,BRUNO BANDEIRA FERNANDES,ROBERTO WILLRICH,,2018-09-17
DOUTORADO,GIANI PETRI,CHRISTIANE GRESSE VON WANGENHEIM,,2018-11-29
MESTRADO,VILMAR CÉSAR PEREIRA JÚNIOR,RENATO FILETO,,2018-11-30
DOUTORADO,TIAGO MAZZUTTI,MAURO ROISENBERG,PAULO JOSÉ DE FREITAS FILHO,2018-12-12
MESTRADO,NATHALIA DA CRUZ ALVES,CHRISTIANE GRESSE VON WANGENHEIM,JEAN CARLO ROSSA HAUCK,2019-02-13
MESTRADO,MUNYQUE MITTELMANN,ALDO VON WANGENHEIM,JERUSA MARCHI,2019-01-24
MESTRADO,FERNANDA OLIVEIRA GOMES,JEAN EVERSON MARTINA,,2019-02-15
MESTRADO,LEANDRO LOFFI,CARLOS BECKER WESTPHALL,CARLA MERKLE WESTPHALL,2019-02-27
MESTRADO,LUIZ HENRIQUE DE LORENZI CANCELLIER,JOSÉ LUÍS A,,2019-02-11
MESTRADO,BRUNO MACHADO AGOSTINHO,MARIO ANTÔNIO RIBEIRO DANTAS,ALEX SANDRO ROSCHILDT PINTO,2019-02-18
MESTRADO,RODRIGO EXTERKOETTER,MAURO ROISENBERG,,2019-03-07
DOUTORADO,IVAN LUIZ SALVADORI,FRANK AUGUSTO SIQUEIRA,,2019-03-19
MESTRADO,LUCAS VIANA KNOCHENHUAER,CARINA FRIEDRICH DORNELES,,2019-02-27
MESTRADO,JOSÉ ROQUE BETIOL JÚNIOR,LUCIANA DE OLIVEIRA RECH,RICARDO ALEXANDRE REINALDO DE MORAES,2019-02-20
MESTRADO,GUILHERME AGUIAR,PATRÍCIA VILAIN,,2019-02-27
MESTRADO,SHEINY FABRE ALMEIDA,JOSÉ LUÍS ALMADA GÜNTZEL,LAÉRCIO LIMA PILLA,2019-02-22
DOUTORADO,MARIANA DEHON COSTA E LIMA,SILVIA MODESTO NASSAR,,2019-03-18
MESTRADO,RODRIGO RODRIGUES PIRES DE MELLO,RICARDO AZAMBUJA SILVEIRA,,2019-03-18
MESTRADO,ERNANI CÉSAR DOS SANTOS,PATRICIA VILAIN,,2019-02-25
MESTRADO,EDUARDO BECKHAUSER,ALDO VON WANGENHEIM,ALEXANDRE SAVARIS,2019-03-26
MESTRADO,CÉSAR HUEGEL RICHA,ANTÔNIO AUGUSTO FRÖHLICH,,2019-04-05
MESTRADO,ANDRÉ RODRIGO DA SILVA,LUCIANA DE OLIVEIRA RECH,,2019-04-12
MESTRADO,DANIELLY SORATO,RENATO FILETO,,2019-04-24
MESTRADO,ALYSON DEIVES PEREIRA,MÁRCIO BASTOS CASTRO,,2019-04-26
MESTRADO,ANDRÉ LUIZ LEHMANN,VANIA BOGORNY,,2019-05-22
MESTRADO,LAÍS BORIN,MÁRCIO CASTRO,PATRICIA PLENTZ,2019-06-26
MESTRADO,FERNANDO DA CRUZ PINHEIRO,CHRISTIANE GRESSE VON WANGENHEIM,JEAN HAUCK,2019-07-10
DOUTORADO,EDUARDO CAMILO INACIO,MARIO ANTONIO RIBEIRO DANTAS,,2019-06-24
MESTRADO,VINÍCIUS ANDREÓLI PETROLINI,ALDO VON WANGENHEIM,ALEXANDRE SAVARIS,2019-07-11
MESTRADO,MURILLO LAGRANHA FLORES,RICARDO AZAMBUJA SILVEIRA,ELDER RIZZON SANTOS,2019-08-08
DOUTORADO,ISAAC LEONARDO SANTOS SACRAMENTO,MAURO ROISENBERG,,2019-08-09
DOUTORADO,LUIZ HENRIQUE ZAMBOM SANTANA,RONALDO DOS SANTOS MELLO,,2019-08-19
MESTRADO,DOUGLAS LOHMANN,JOSÉ LUÍS ALMADA GÜNTZEL,DJONES VINÍCIUS LETTNIN,2019-08-15
DOUTORADO,RICK LOPES DE SOUZA,RICARDO FELIPE CUSTÓDIO,LUCIA MOURA,2019-08-16
MESTRADO,ALEXANDRE DE LIMAS SANTANA,MÁRCIO BASTOS CASTRO,LAÉRCIO LIMA PILLA,2019-09-02
DOUTORADO,PABLO SCHOEFFEL,RAUL SIDNEI WAZLAWICK,VINICIUS FARIA CULMANT RAMOS,2019-08-21
MESTRADO,CAÍQUE ALBERT MÜLLER REINHOLD,MAURO ROISENBERG,,2019-08-27
