AN_BASE;NM_GRANDE_AREA_CONHECIMENTO;CD_AREA_AVALIACAO;NM_AREA_AVALIACAO;SG_ENTIDADE_ENSINO;NM_ENTIDADE_ENSINO;CS_STATUS_JURIDICO;DS_DEPENDENCIA_ADMINISTRATIVA;NM_MODALIDADE_PROGRAMA;NM_GRAU_PROGRAMA;CD_PROGRAMA_IES;NM_PROGRAMA_IES;NM_REGIAO;SG_UF_PROGRAMA;NM_MUNICIPIO_PROGRAMA_IES;CD_CONCEITO_PROGRAMA;CD_CONCEITO_CURSO;ID_PESSOA;NM_DISCENTE;NM_PAIS_NACIONALIDADE_DISCENTE;DS_TIPO_NACIONALIDADE_DISCENTE;TP_SEXO_DISCENTE;TP_RACA_DISCENTE;IN_DEFICIENCIA;DS_FAIXA_ETARIA;DS_GRAU_ACADEMICO_DISCENTE;ST_INGRESSANTE;NM_SITUACAO_DISCENTE;DT_MATRICULA_DISCENTE;DT_SITUACAO_DISCENTE;QT_MES_TITULACAO;NM_TESE_DISSERTACAO;NM_ORIENTADOR_PRINCIPAL;ID_ADD_FOTO_PROGRAMA;ID_ADD_FOTO_PROGRAMA_IES
2017;CIÊNCIAS EXATAS E DA TERRA;2;CIÊNCIA DA COMPUTAÇÃO;UFSC;UNIVERSIDADE FEDERAL DE SANTA CATARINA;FEDERAL;PÚBLICA;ACADÊMICO;MESTRADO/DOUTORADO;41001010025P2;CIÊNCIAS DA COMPUTAÇÃO;SUL;SC;FLORIANÓPOLIS;5;5;2518962;ALEC AUGUSTO GONCALVES VENTURA;BRASIL;BRASILEIRO;MASCULINO;BRANCA;NÃO;30 A 34 ANOS;MESTRADO;NÃO;MATRICULADO;08Aug2016 0:00:00;08Aug2016 0:00:00;0;NÃO SE APLICA;NÃO SE APLICA;65994;129130
2017;CIÊNCIAS EXATAS E DA TERRA;2;CIÊNCIA DA COMPUTAÇÃO;UFSC;UNIVERSIDADE FEDERAL DE SANTA CATARINA;FEDERAL;PÚBLICA;ACADÊMICO;MESTRADO/DOUTORADO;41001010025P2;CIÊNCIAS DA COMPUTAÇÃO;SUL;SC;FLORIANÓPOLIS;5;5;202827;ALEX PINHO MAGALHAES;BRASIL;BRASILEIRO;MASCULINO;BRANCA;NÃO;35 A 39 ANOS;DOUTORADO;NÃO;MATRICULADO;24Sep2012 0:00:00;24Sep2012 0:00:00;0;NÃO SE APLICA;NÃO SE APLICA;65994;129130
2017;CIÊNCIAS EXATAS E DA TERRA;2;CIÊNCIA DA COMPUTAÇÃO;UFSC;UNIVERSIDADE FEDERAL DE SANTA CATARINA;FEDERAL;PÚBLICA;ACADÊMICO;MESTRADO/DOUTORADO;41001010025P2;CIÊNCIAS DA COMPUTAÇÃO;SUL;SC;FLORIANÓPOLIS;5;5;2251789;ALEX RICARDO WEBER;BRASIL;BRASILEIRO;MASCULINO;BRANCA;NÃO;30 A 34 ANOS;MESTRADO;NÃO;MATRICULADO;08Aug2016 0:00:00;08Aug2016 0:00:00;0;NÃO SE APLICA;NÃO SE APLICA;65994;129130
2017;CIÊNCIAS EXATAS E DA TERRA;2;CIÊNCIA DA COMPUTAÇÃO;UFSC;UNIVERSIDADE FEDERAL DE SANTA CATARINA;FEDERAL;PÚBLICA;ACADÊMICO;MESTRADO/DOUTORADO;41001010025P2;CIÊNCIAS DA COMPUTAÇÃO;SUL;SC;FLORIANÓPOLIS;5;5;2518983;ALEX SANDRO DA SILVA PEREIRA;BRASIL;BRASILEIRO;MASCULINO;PRETA;NÃO;30 A 34 ANOS;MESTRADO;NÃO;MATRICULADO;08Aug2016 0:00:00;08Aug2016 0:00:00;0;NÃO SE APLICA;NÃO SE APLICA;65994;129130
2017;CIÊNCIAS EXATAS E DA TERRA;2;CIÊNCIA DA COMPUTAÇÃO;UFSC;UNIVERSIDADE FEDERAL DE SANTA CATARINA;FEDERAL;PÚBLICA;ACADÊMICO;MESTRADO/DOUTORADO;41001010025P2;CIÊNCIAS DA COMPUTAÇÃO;SUL;SC;FLORIANÓPOLIS;5;5;2638521;ALEXANDRE DE LIMAS SANTANA;BRASIL;BRASILEIRO;MASCULINO;BRANCA;NÃO;25 A 29 ANOS;MESTRADO;SIM;MATRICULADO;06Mar2017 0:00:00;06Mar2017 0:00:00;0;NÃO SE APLICA;NÃO SE APLICA;65994;129130
2017;CIÊNCIAS EXATAS E DA TERRA;2;CIÊNCIA DA COMPUTAÇÃO;UFSC;UNIVERSIDADE FEDERAL DE SANTA CATARINA;FEDERAL;PÚBLICA;ACADÊMICO;MESTRADO/DOUTORADO;41001010025P2;CIÊNCIAS DA COMPUTAÇÃO;SUL;SC;FLORIANÓPOLIS;5;5;2421444;ALEXIS ARMIN HUF;BRASIL;BRASILEIRO;MASCULINO;BRANCA;NÃO;25 A 29 ANOS;MESTRADO;NÃO;MATRICULADO;14Mar2016 0:00:00;14Mar2016 0:00:00;0;NÃO SE APLICA;NÃO SE APLICA;65994;129130
2017;CIÊNCIAS EXATAS E DA TERRA;2;CIÊNCIA DA COMPUTAÇÃO;UFSC;UNIVERSIDADE FEDERAL DE SANTA CATARINA;FEDERAL;PÚBLICA;ACADÊMICO;MESTRADO/DOUTORADO;41001010025P2;CIÊNCIAS DA COMPUTAÇÃO;SUL;SC;FLORIANÓPOLIS;5;5;2085218;ALLAN RENATO SABINO;BRASIL;BRASILEIRO;MASCULINO;BRANCA;NÃO;25 A 29 ANOS;MESTRADO;NÃO;MATRICULADO;02Mar2015 0:00:00;02Mar2015 0:00:00;0;NÃO SE APLICA;NÃO SE APLICA;65994;129130
2017;CIÊNCIAS EXATAS E DA TERRA;2;CIÊNCIA DA COMPUTAÇÃO;UFSC;UNIVERSIDADE FEDERAL DE SANTA CATARINA;FEDERAL;PÚBLICA;ACADÊMICO;MESTRADO/DOUTORADO;41001010025P2;CIÊNCIAS DA COMPUTAÇÃO;SUL;SC;FLORIANÓPOLIS;5;5;734538;ALYSON DEIVES PEREIRA;BRASIL;BRASILEIRO;MASCULINO;PARDA;NÃO;25 A 29 ANOS;MESTRADO;NÃO;MATRICULADO;14Mar2016 0:00:00;14Mar2016 0:00:00;0;NÃO SE APLICA;NÃO SE APLICA;65994;129130
2017;CIÊNCIAS EXATAS E DA TERRA;2;CIÊNCIA DA COMPUTAÇÃO;UFSC;UNIVERSIDADE FEDERAL DE SANTA CATARINA;FEDERAL;PÚBLICA;ACADÊMICO;MESTRADO/DOUTORADO;41001010025P2;CIÊNCIAS DA COMPUTAÇÃO;SUL;SC;FLORIANÓPOLIS;5;5;1148753;ANDERSON SALLES;BRASIL;BRASILEIRO;MASCULINO;BRANCA;NÃO;25 A 29 ANOS;MESTRADO;NÃO;TITULADO;10Mar2014 0:00:00;03Mar2017 0:00:00;36;SERVIÇO WEB DE RECOMENDAÇÃO BASEADO EM ONTOLOGIAS E GRAFOS PARA REPOSITÓRIOS DIGITAIS;ROBERTO WILLRICH;65994;129130
2017;CIÊNCIAS EXATAS E DA TERRA;2;CIÊNCIA DA COMPUTAÇÃO;UFSC;UNIVERSIDADE FEDERAL DE SANTA CATARINA;FEDERAL;PÚBLICA;ACADÊMICO;MESTRADO/DOUTORADO;41001010025P2;CIÊNCIAS DA COMPUTAÇÃO;SUL;SC;FLORIANÓPOLIS;5;5;1415719;ANDRE BEIMS BRASCHER;BRASIL;BRASILEIRO;MASCULINO;BRANCA;NÃO;20 A 24 ANOS;MESTRADO;NÃO;MATRICULADO;08Aug2016 0:00:00;08Aug2016 0:00:00;0;NÃO SE APLICA;NÃO SE APLICA;65994;129130
2017;CIÊNCIAS EXATAS E DA TERRA;2;CIÊNCIA DA COMPUTAÇÃO;UFSC;UNIVERSIDADE FEDERAL DE SANTA CATARINA;FEDERAL;PÚBLICA;ACADÊMICO;MESTRADO/DOUTORADO;41001010025P2;CIÊNCIAS DA COMPUTAÇÃO;SUL;SC;FLORIANÓPOLIS;5;5;1974009;ANDRE BRASIL VIEIRA WYZYKOWSKI;BRASIL;BRASILEIRO;MASCULINO;BRANCA;NÃO;25 A 29 ANOS;MESTRADO;NÃO;TITULADO;03Aug2015 0:00:00;11Aug2017 0:00:00;24;APERFEIÇOAMENTO DO ALGORITMO ORB PARA O CASAMENTO COMPLETO E INVARIANTE ÀS TRANSFORMAÇÕES AFINS;JERUSA MARCHI;65994;129130
2017;CIÊNCIAS EXATAS E DA TERRA;2;CIÊNCIA DA COMPUTAÇÃO;UFSC;UNIVERSIDADE FEDERAL DE SANTA CATARINA;FEDERAL;PÚBLICA;ACADÊMICO;MESTRADO/DOUTORADO;41001010025P2;CIÊNCIAS DA COMPUTAÇÃO;SUL;SC;FLORIANÓPOLIS;5;5;2641226;ANDRE LUIZ LEHMANN;BRASIL;BRASILEIRO;MASCULINO;BRANCA;NÃO;30 A 34 ANOS;MESTRADO;SIM;MATRICULADO;06Mar2017 0:00:00;06Mar2017 0:00:00;0;NÃO SE APLICA;NÃO SE APLICA;65994;129130
2017;CIÊNCIAS EXATAS E DA TERRA;2;CIÊNCIA DA COMPUTAÇÃO;UFSC;UNIVERSIDADE FEDERAL DE SANTA CATARINA;FEDERAL;PÚBLICA;ACADÊMICO;MESTRADO/DOUTORADO;41001010025P2;CIÊNCIAS DA COMPUTAÇÃO;SUL;SC;FLORIANÓPOLIS;5;5;74105;ANDRE LUIZ TINASSI D AMATO;BRASIL;BRASILEIRO;MASCULINO;BRANCA;NÃO;30 A 34 ANOS;DOUTORADO;NÃO;TITULADO;11Mar2013 0:00:00;28Sep2017 0:00:00;55;MODELO DE ALOCAÇÃO DE RECURSOS BASEADO EM QOC PARA O BALANCEAMENTO ENTRE QOE E DESEMPENHO EM SISTEMAS DISTRIBUÍDOS;MARIO ANTONIO RIBEIRO DANTAS;65994;129130
2017;CIÊNCIAS EXATAS E DA TERRA;2;CIÊNCIA DA COMPUTAÇÃO;UFSC;UNIVERSIDADE FEDERAL DE SANTA CATARINA;FEDERAL;PÚBLICA;ACADÊMICO;MESTRADO/DOUTORADO;41001010025P2;CIÊNCIAS DA COMPUTAÇÃO;SUL;SC;FLORIANÓPOLIS;5;5;2421287;ANDRE RODRIGO DA SILVA;BRASIL;BRASILEIRO;MASCULINO;BRANCA;NÃO;25 A 29 ANOS;MESTRADO;NÃO;MATRICULADO;14Mar2016 0:00:00;14Mar2016 0:00:00;0;NÃO SE APLICA;NÃO SE APLICA;65994;129130
2017;CIÊNCIAS EXATAS E DA TERRA;2;CIÊNCIA DA COMPUTAÇÃO;UFSC;UNIVERSIDADE FEDERAL DE SANTA CATARINA;FEDERAL;PÚBLICA;ACADÊMICO;MESTRADO/DOUTORADO;41001010025P2;CIÊNCIAS DA COMPUTAÇÃO;SUL;SC;FLORIANÓPOLIS;5;5;153327;ANDRE SALVARO FURTADO;BRASIL;BRASILEIRO;MASCULINO;BRANCA;NÃO;25 A 29 ANOS;DOUTORADO;NÃO;TITULADO;12Aug2013 0:00:00;21Dec2017 0:00:00;52;ENHANCING TRAJECTORY SIMILARITY MEASURING;VANIA BOGORNY;65994;129130
2017;CIÊNCIAS EXATAS E DA TERRA;2;CIÊNCIA DA COMPUTAÇÃO;UFSC;UNIVERSIDADE FEDERAL DE SANTA CATARINA;FEDERAL;PÚBLICA;ACADÊMICO;MESTRADO/DOUTORADO;41001010025P2;CIÊNCIAS DA COMPUTAÇÃO;SUL;SC;FLORIANÓPOLIS;5;5;149459;ANDREIA ALVES DOS SANTOS SCHWAAB;BRASIL;BRASILEIRO;FEMININO;BRANCA;NÃO;30 A 34 ANOS;DOUTORADO;NÃO;TITULADO;11Mar2013 0:00:00;30Mar2017 0:00:00;49;MÉTODO PARA GERAÇÃO E OTIMIZAÇÃO DE FUNÇÕES DE PERTINÊNCIA PARA PREVISÃO DE SÉRIES TEMPORAIS;SILVIA MODESTO NASSAR;65994;129130
2017;CIÊNCIAS EXATAS E DA TERRA;2;CIÊNCIA DA COMPUTAÇÃO;UFSC;UNIVERSIDADE FEDERAL DE SANTA CATARINA;FEDERAL;PÚBLICA;ACADÊMICO;MESTRADO/DOUTORADO;41001010025P2;CIÊNCIAS DA COMPUTAÇÃO;SUL;SC;FLORIANÓPOLIS;5;5;390129;ANGELO AUGUSTO FROZZA;BRASIL;BRASILEIRO;MASCULINO;BRANCA;NÃO;45 A 49 ANOS;DOUTORADO;NÃO;MATRICULADO;14Mar2016 0:00:00;14Mar2016 0:00:00;0;NÃO SE APLICA;NÃO SE APLICA;65994;129130
2017;CIÊNCIAS EXATAS E DA TERRA;2;CIÊNCIA DA COMPUTAÇÃO;UFSC;UNIVERSIDADE FEDERAL DE SANTA CATARINA;FEDERAL;PÚBLICA;ACADÊMICO;MESTRADO/DOUTORADO;41001010025P2;CIÊNCIAS DA COMPUTAÇÃO;SUL;SC;FLORIANÓPOLIS;5;5;57761;ARNOLDO UBER JUNIOR;BRASIL;BRASILEIRO;MASCULINO;BRANCA;NÃO;35 A 39 ANOS;DOUTORADO;NÃO;MATRICULADO;02Mar2015 0:00:00;02Mar2015 0:00:00;0;NÃO SE APLICA;NÃO SE APLICA;65994;129130
2017;CIÊNCIAS EXATAS E DA TERRA;2;CIÊNCIA DA COMPUTAÇÃO;UFSC;UNIVERSIDADE FEDERAL DE SANTA CATARINA;FEDERAL;PÚBLICA;ACADÊMICO;MESTRADO/DOUTORADO;41001010025P2;CIÊNCIAS DA COMPUTAÇÃO;SUL;SC;FLORIANÓPOLIS;5;5;2644873;BERNARDO PANERAI VELLOSO;BRASIL;BRASILEIRO;MASCULINO;NÃO DECLARADO;NÃO;30 A 34 ANOS;MESTRADO;SIM;DESLIGADO;06Mar2017 0:00:00;28Aug2017 0:00:00;0;NÃO SE APLICA;NÃO SE APLICA;65994;129130
2017;CIÊNCIAS EXATAS E DA TERRA;2;CIÊNCIA DA COMPUTAÇÃO;UFSC;UNIVERSIDADE FEDERAL DE SANTA CATARINA;FEDERAL;PÚBLICA;ACADÊMICO;MESTRADO/DOUTORADO;41001010025P2;CIÊNCIAS DA COMPUTAÇÃO;SUL;SC;FLORIANÓPOLIS;5;5;2421481;BRUNO BANDEIRA FERNANDES;BRASIL;BRASILEIRO;MASCULINO;PARDA;NÃO;25 A 29 ANOS;MESTRADO;NÃO;MATRICULADO;14Mar2016 0:00:00;14Mar2016 0:00:00;0;NÃO SE APLICA;NÃO SE APLICA;65994;129130
2017;CIÊNCIAS EXATAS E DA TERRA;2;CIÊNCIA DA COMPUTAÇÃO;UFSC;UNIVERSIDADE FEDERAL DE SANTA CATARINA;FEDERAL;PÚBLICA;ACADÊMICO;MESTRADO/DOUTORADO;41001010025P2;CIÊNCIAS DA COMPUTAÇÃO;SUL;SC;FLORIANÓPOLIS;5;5;2421492;BRUNO CESAR NEVES DE OLIVEIRA;BRASIL;BRASILEIRO;MASCULINO;BRANCA;NÃO;25 A 29 ANOS;MESTRADO;NÃO;MATRICULADO;14Mar2016 0:00:00;14Mar2016 0:00:00;0;NÃO SE APLICA;NÃO SE APLICA;65994;129130
2017;CIÊNCIAS EXATAS E DA TERRA;2;CIÊNCIA DA COMPUTAÇÃO;UFSC;UNIVERSIDADE FEDERAL DE SANTA CATARINA;FEDERAL;PÚBLICA;ACADÊMICO;MESTRADO/DOUTORADO;41001010025P2;CIÊNCIAS DA COMPUTAÇÃO;SUL;SC;FLORIANÓPOLIS;5;5;2639544;BRUNO MACHADO AGOSTINHO;BRASIL;BRASILEIRO;MASCULINO;BRANCA;NÃO;30 A 34 ANOS;MESTRADO;SIM;MATRICULADO;06Mar2017 0:00:00;06Mar2017 0:00:00;0;NÃO SE APLICA;NÃO SE APLICA;65994;129130
2017;CIÊNCIAS EXATAS E DA TERRA;2;CIÊNCIA DA COMPUTAÇÃO;UFSC;UNIVERSIDADE FEDERAL DE SANTA CATARINA;FEDERAL;PÚBLICA;ACADÊMICO;MESTRADO/DOUTORADO;41001010025P2;CIÊNCIAS DA COMPUTAÇÃO;SUL;SC;FLORIANÓPOLIS;5;5;476722;CACIANO DOS SANTOS MACHADO;BRASIL;BRASILEIRO;MASCULINO;PARDA;NÃO;35 A 39 ANOS;DOUTORADO;SIM;MATRICULADO;31Jul2017 0:00:00;31Jul2017 0:00:00;0;NÃO SE APLICA;NÃO SE APLICA;65994;129130
2017;CIÊNCIAS EXATAS E DA TERRA;2;CIÊNCIA DA COMPUTAÇÃO;UFSC;UNIVERSIDADE FEDERAL DE SANTA CATARINA;FEDERAL;PÚBLICA;ACADÊMICO;MESTRADO/DOUTORADO;41001010025P2;CIÊNCIAS DA COMPUTAÇÃO;SUL;SC;FLORIANÓPOLIS;5;5;2639443;CAIQUE ALBERT MULLER REINHOLD;BRASIL;BRASILEIRO;MASCULINO;BRANCA;NÃO;20 A 24 ANOS;MESTRADO;SIM;MATRICULADO;06Mar2017 0:00:00;06Mar2017 0:00:00;0;NÃO SE APLICA;NÃO SE APLICA;65994;129130
2017;CIÊNCIAS EXATAS E DA TERRA;2;CIÊNCIA DA COMPUTAÇÃO;UFSC;UNIVERSIDADE FEDERAL DE SANTA CATARINA;FEDERAL;PÚBLICA;ACADÊMICO;MESTRADO/DOUTORADO;41001010025P2;CIÊNCIAS DA COMPUTAÇÃO;SUL;SC;FLORIANÓPOLIS;5;5;162805;CARLOS ANDRES FERRERO;BRASIL;BRASILEIRO;MASCULINO;BRANCA;NÃO;30 A 34 ANOS;DOUTORADO;NÃO;MATRICULADO;02Mar2015 0:00:00;02Mar2015 0:00:00;0;NÃO SE APLICA;NÃO SE APLICA;65994;129130
2017;CIÊNCIAS EXATAS E DA TERRA;2;CIÊNCIA DA COMPUTAÇÃO;UFSC;UNIVERSIDADE FEDERAL DE SANTA CATARINA;FEDERAL;PÚBLICA;ACADÊMICO;MESTRADO/DOUTORADO;41001010025P2;CIÊNCIAS DA COMPUTAÇÃO;SUL;SC;FLORIANÓPOLIS;5;5;1113291;CESAR HUEGEL RICHA;BRASIL;BRASILEIRO;MASCULINO;BRANCA;NÃO;20 A 24 ANOS;MESTRADO;SIM;MATRICULADO;06Mar2017 0:00:00;06Mar2017 0:00:00;0;NÃO SE APLICA;NÃO SE APLICA;65994;129130
2017;CIÊNCIAS EXATAS E DA TERRA;2;CIÊNCIA DA COMPUTAÇÃO;UFSC;UNIVERSIDADE FEDERAL DE SANTA CATARINA;FEDERAL;PÚBLICA;ACADÊMICO;MESTRADO/DOUTORADO;41001010025P2;CIÊNCIAS DA COMPUTAÇÃO;SUL;SC;FLORIANÓPOLIS;5;5;726440;CHRYSTIAN DE SOUSA GUTH;BRASIL;BRASILEIRO;MASCULINO;BRANCA;NÃO;20 A 24 ANOS;DOUTORADO;NÃO;MATRICULADO;14Mar2016 0:00:00;14Mar2016 0:00:00;0;NÃO SE APLICA;NÃO SE APLICA;65994;129130
2017;CIÊNCIAS EXATAS E DA TERRA;2;CIÊNCIA DA COMPUTAÇÃO;UFSC;UNIVERSIDADE FEDERAL DE SANTA CATARINA;FEDERAL;PÚBLICA;ACADÊMICO;MESTRADO/DOUTORADO;41001010025P2;CIÊNCIAS DA COMPUTAÇÃO;SUL;SC;FLORIANÓPOLIS;5;5;870781;CLAUDIO LUIZ DETTONI JUNIOR;BRASIL;BRASILEIRO;MASCULINO;BRANCA;NÃO;25 A 29 ANOS;MESTRADO;NÃO;MATRICULADO;14Mar2016 0:00:00;14Mar2016 0:00:00;0;NÃO SE APLICA;NÃO SE APLICA;65994;129130
2017;CIÊNCIAS EXATAS E DA TERRA;2;CIÊNCIA DA COMPUTAÇÃO;UFSC;UNIVERSIDADE FEDERAL DE SANTA CATARINA;FEDERAL;PÚBLICA;ACADÊMICO;MESTRADO/DOUTORADO;41001010025P2;CIÊNCIAS DA COMPUTAÇÃO;SUL;SC;FLORIANÓPOLIS;5;5;72582;DANIEL DOS SANTOS;BRASIL;BRASILEIRO;MASCULINO;BRANCA;NÃO;30 A 34 ANOS;DOUTORADO;NÃO;MATRICULADO;22Feb2016 0:00:00;22Feb2016 0:00:00;0;NÃO SE APLICA;NÃO SE APLICA;65994;129130
2017;CIÊNCIAS EXATAS E DA TERRA;2;CIÊNCIA DA COMPUTAÇÃO;UFSC;UNIVERSIDADE FEDERAL DE SANTA CATARINA;FEDERAL;PÚBLICA;ACADÊMICO;MESTRADO/DOUTORADO;41001010025P2;CIÊNCIAS DA COMPUTAÇÃO;SUL;SC;FLORIANÓPOLIS;5;5;847320;DANIEL PRESSER;BRASIL;BRASILEIRO;MASCULINO;BRANCA;NÃO;30 A 34 ANOS;DOUTORADO;NÃO;MATRICULADO;14Mar2016 0:00:00;14Mar2016 0:00:00;0;NÃO SE APLICA;NÃO SE APLICA;65994;129130
2017;CIÊNCIAS EXATAS E DA TERRA;2;CIÊNCIA DA COMPUTAÇÃO;UFSC;UNIVERSIDADE FEDERAL DE SANTA CATARINA;FEDERAL;PÚBLICA;ACADÊMICO;MESTRADO/DOUTORADO;41001010025P2;CIÊNCIAS DA COMPUTAÇÃO;SUL;SC;FLORIANÓPOLIS;5;5;1135932;DANIEL PRIORI;BRASIL;BRASILEIRO;MASCULINO;BRANCA;NÃO;35 A 39 ANOS;MESTRADO;NÃO;TITULADO;10Mar2014 0:00:00;29Mar2017 0:00:00;37;COMPARISON OF NEURAL NETWORK MODELS APPLIED TO SIZE PREDICTION OF ATMOSPHERIC PARTICLES BASED ON THEIR TWO-DIMENSIONAL LIGHT SCATTERING PATTERNS;MAURO ROISENBERG;65994;129130
2017;CIÊNCIAS EXATAS E DA TERRA;2;CIÊNCIA DA COMPUTAÇÃO;UFSC;UNIVERSIDADE FEDERAL DE SANTA CATARINA;FEDERAL;PÚBLICA;ACADÊMICO;MESTRADO/DOUTORADO;41001010025P2;CIÊNCIAS DA COMPUTAÇÃO;SUL;SC;FLORIANÓPOLIS;5;5;837552;DANIELLY SORATO;BRASIL;BRASILEIRO;FEMININO;BRANCA;NÃO;25 A 29 ANOS;MESTRADO;SIM;MATRICULADO;06Mar2017 0:00:00;06Mar2017 0:00:00;0;NÃO SE APLICA;NÃO SE APLICA;65994;129130
2017;CIÊNCIAS EXATAS E DA TERRA;2;CIÊNCIA DA COMPUTAÇÃO;UFSC;UNIVERSIDADE FEDERAL DE SANTA CATARINA;FEDERAL;PÚBLICA;ACADÊMICO;MESTRADO/DOUTORADO;41001010025P2;CIÊNCIAS DA COMPUTAÇÃO;SUL;SC;FLORIANÓPOLIS;5;5;1135634;DARLAN ANSCHAU;BRASIL;BRASILEIRO;MASCULINO;BRANCA;NÃO;25 A 29 ANOS;MESTRADO;NÃO;TITULADO;10Mar2014 0:00:00;09Mar2017 0:00:00;36;ARQUITETURA DE AMBIENTE INTELIGENTE DE APRENDIZAGEM UTILIZANDO LÓGICA TEMPORAL;JERUSA MARCHI;65994;129130
2017;CIÊNCIAS EXATAS E DA TERRA;2;CIÊNCIA DA COMPUTAÇÃO;UFSC;UNIVERSIDADE FEDERAL DE SANTA CATARINA;FEDERAL;PÚBLICA;ACADÊMICO;MESTRADO/DOUTORADO;41001010025P2;CIÊNCIAS DA COMPUTAÇÃO;SUL;SC;FLORIANÓPOLIS;5;5;549231;DAVI RESNER;BRASIL;BRASILEIRO;MASCULINO;BRANCA;NÃO;25 A 29 ANOS;MESTRADO;NÃO;MATRICULADO;02Mar2015 0:00:00;02Mar2015 0:00:00;0;NÃO SE APLICA;NÃO SE APLICA;65994;129130
2017;CIÊNCIAS EXATAS E DA TERRA;2;CIÊNCIA DA COMPUTAÇÃO;UFSC;UNIVERSIDADE FEDERAL DE SANTA CATARINA;FEDERAL;PÚBLICA;ACADÊMICO;MESTRADO/DOUTORADO;41001010025P2;CIÊNCIAS DA COMPUTAÇÃO;SUL;SC;FLORIANÓPOLIS;5;5;2772968;DAVID GRAMINHO VICTOR;BRASIL;BRASILEIRO;MASCULINO;BRANCA;NÃO;40 A 44 ANOS;MESTRADO;SIM;DESLIGADO;31Jul2017 0:00:00;07Dec2017 0:00:00;0;NÃO SE APLICA;NÃO SE APLICA;65994;129130
2017;CIÊNCIAS EXATAS E DA TERRA;2;CIÊNCIA DA COMPUTAÇÃO;UFSC;UNIVERSIDADE FEDERAL DE SANTA CATARINA;FEDERAL;PÚBLICA;ACADÊMICO;MESTRADO/DOUTORADO;41001010025P2;CIÊNCIAS DA COMPUTAÇÃO;SUL;SC;FLORIANÓPOLIS;5;5;807809;DOUGLAS HIURA LONGO;BRASIL;BRASILEIRO;MASCULINO;BRANCA;NÃO;30 A 34 ANOS;DOUTORADO;NÃO;MATRICULADO;03Aug2015 0:00:00;03Aug2015 0:00:00;0;NÃO SE APLICA;NÃO SE APLICA;65994;129130
2017;CIÊNCIAS EXATAS E DA TERRA;2;CIÊNCIA DA COMPUTAÇÃO;UFSC;UNIVERSIDADE FEDERAL DE SANTA CATARINA;FEDERAL;PÚBLICA;ACADÊMICO;MESTRADO/DOUTORADO;41001010025P2;CIÊNCIAS DA COMPUTAÇÃO;SUL;SC;FLORIANÓPOLIS;5;5;2519001;DOUGLAS LOHMANN;BRASIL;BRASILEIRO;MASCULINO;BRANCA;NÃO;25 A 29 ANOS;MESTRADO;NÃO;MATRICULADO;08Aug2016 0:00:00;08Aug2016 0:00:00;0;NÃO SE APLICA;NÃO SE APLICA;65994;129130
2017;CIÊNCIAS EXATAS E DA TERRA;2;CIÊNCIA DA COMPUTAÇÃO;UFSC;UNIVERSIDADE FEDERAL DE SANTA CATARINA;FEDERAL;PÚBLICA;ACADÊMICO;MESTRADO/DOUTORADO;41001010025P2;CIÊNCIAS DA COMPUTAÇÃO;SUL;SC;FLORIANÓPOLIS;5;5;2085267;DOUGLAS SIMOES SILVA;BRASIL;BRASILEIRO;MASCULINO;BRANCA;NÃO;25 A 29 ANOS;MESTRADO;NÃO;TITULADO;02Mar2015 0:00:00;31Mar2017 0:00:00;25;FORMAL VERIFICATION AND ACCESS CONTROL APPROACH OF AN IOT PROTOCOL;JEAN EVERSON MARTINA;65994;129130
2017;CIÊNCIAS EXATAS E DA TERRA;2;CIÊNCIA DA COMPUTAÇÃO;UFSC;UNIVERSIDADE FEDERAL DE SANTA CATARINA;FEDERAL;PÚBLICA;ACADÊMICO;MESTRADO/DOUTORADO;41001010025P2;CIÊNCIAS DA COMPUTAÇÃO;SUL;SC;FLORIANÓPOLIS;5;5;2476133;EDUARDO BECKHAUSER;BRASIL;BRASILEIRO;MASCULINO;BRANCA;NÃO;20 A 24 ANOS;MESTRADO;SIM;MATRICULADO;06Mar2017 0:00:00;06Mar2017 0:00:00;0;NÃO SE APLICA;NÃO SE APLICA;65994;129130
2017;CIÊNCIAS EXATAS E DA TERRA;2;CIÊNCIA DA COMPUTAÇÃO;UFSC;UNIVERSIDADE FEDERAL DE SANTA CATARINA;FEDERAL;PÚBLICA;ACADÊMICO;MESTRADO/DOUTORADO;41001010025P2;CIÊNCIAS DA COMPUTAÇÃO;SUL;SC;FLORIANÓPOLIS;5;5;916944;EDUARDO CAMILO INACIO;BRASIL;BRASILEIRO;MASCULINO;BRANCA;NÃO;30 A 34 ANOS;DOUTORADO;NÃO;MATRICULADO;02Mar2015 0:00:00;02Mar2015 0:00:00;0;NÃO SE APLICA;NÃO SE APLICA;65994;129130
2017;CIÊNCIAS EXATAS E DA TERRA;2;CIÊNCIA DA COMPUTAÇÃO;UFSC;UNIVERSIDADE FEDERAL DE SANTA CATARINA;FEDERAL;PÚBLICA;ACADÊMICO;MESTRADO/DOUTORADO;41001010025P2;CIÊNCIAS DA COMPUTAÇÃO;SUL;SC;FLORIANÓPOLIS;5;5;1150489;EDUARDO JORGE DA ROSA BURGEL;BRASIL;BRASILEIRO;MASCULINO;BRANCA;NÃO;35 A 39 ANOS;MESTRADO;NÃO;TITULADO;10Mar2014 0:00:00;07Mar2017 0:00:00;36;ACCELERATED INCREMENTAL LISTWISE LEARNING TO RANK FOR COLLABORATIVE FILTERING;JERUSA MARCHI;65994;129130
2017;CIÊNCIAS EXATAS E DA TERRA;2;CIÊNCIA DA COMPUTAÇÃO;UFSC;UNIVERSIDADE FEDERAL DE SANTA CATARINA;FEDERAL;PÚBLICA;ACADÊMICO;MESTRADO/DOUTORADO;41001010025P2;CIÊNCIAS DA COMPUTAÇÃO;SUL;SC;FLORIANÓPOLIS;5;5;139847;ELIZA HELENA AREIAS GOMES;BRASIL;BRASILEIRO;FEMININO;BRANCA;NÃO;30 A 34 ANOS;DOUTORADO;NÃO;MATRICULADO;14Mar2016 0:00:00;14Mar2016 0:00:00;0;NÃO SE APLICA;NÃO SE APLICA;65994;129130
2017;CIÊNCIAS EXATAS E DA TERRA;2;CIÊNCIA DA COMPUTAÇÃO;UFSC;UNIVERSIDADE FEDERAL DE SANTA CATARINA;FEDERAL;PÚBLICA;ACADÊMICO;MESTRADO/DOUTORADO;41001010025P2;CIÊNCIAS DA COMPUTAÇÃO;SUL;SC;FLORIANÓPOLIS;5;5;2421523;ERNANI CESAR DOS SANTOS;BRASIL;BRASILEIRO;MASCULINO;BRANCA;NÃO;30 A 34 ANOS;MESTRADO;NÃO;MATRICULADO;14Mar2016 0:00:00;14Mar2016 0:00:00;0;NÃO SE APLICA;NÃO SE APLICA;65994;129130
2017;CIÊNCIAS EXATAS E DA TERRA;2;CIÊNCIA DA COMPUTAÇÃO;UFSC;UNIVERSIDADE FEDERAL DE SANTA CATARINA;FEDERAL;PÚBLICA;ACADÊMICO;MESTRADO/DOUTORADO;41001010025P2;CIÊNCIAS DA COMPUTAÇÃO;SUL;SC;FLORIANÓPOLIS;5;5;807805;FABIO BIF GOULARTE;BRASIL;BRASILEIRO;MASCULINO;BRANCA;NÃO;35 A 39 ANOS;DOUTORADO;NÃO;MATRICULADO;02Mar2015 0:00:00;02Mar2015 0:00:00;0;NÃO SE APLICA;NÃO SE APLICA;65994;129130
2017;CIÊNCIAS EXATAS E DA TERRA;2;CIÊNCIA DA COMPUTAÇÃO;UFSC;UNIVERSIDADE FEDERAL DE SANTA CATARINA;FEDERAL;PÚBLICA;ACADÊMICO;MESTRADO/DOUTORADO;41001010025P2;CIÊNCIAS DA COMPUTAÇÃO;SUL;SC;FLORIANÓPOLIS;5;5;1134206;FELIPE BORN DE JESUS;BRASIL;BRASILEIRO;MASCULINO;BRANCA;NÃO;25 A 29 ANOS;MESTRADO;NÃO;TITULADO;10Mar2014 0:00:00;23Feb2017 0:00:00;35;AJUSTAMENTO DE PESOS PARA RATINGS DE MÚLTIPLOS CRITÉRIOS EM RECOMENDAÇÃO DE ITENS;CARINA FRIEDRICH DORNELES;65994;129130
2017;CIÊNCIAS EXATAS E DA TERRA;2;CIÊNCIA DA COMPUTAÇÃO;UFSC;UNIVERSIDADE FEDERAL DE SANTA CATARINA;FEDERAL;PÚBLICA;ACADÊMICO;MESTRADO/DOUTORADO;41001010025P2;CIÊNCIAS DA COMPUTAÇÃO;SUL;SC;FLORIANÓPOLIS;5;5;2369475;FELIPE DEMARCHI;BRASIL;BRASILEIRO;MASCULINO;BRANCA;NÃO;25 A 29 ANOS;MESTRADO;NÃO;MATRICULADO;03Aug2015 0:00:00;03Aug2015 0:00:00;0;NÃO SE APLICA;NÃO SE APLICA;65994;129130
2017;CIÊNCIAS EXATAS E DA TERRA;2;CIÊNCIA DA COMPUTAÇÃO;UFSC;UNIVERSIDADE FEDERAL DE SANTA CATARINA;FEDERAL;PÚBLICA;ACADÊMICO;MESTRADO/DOUTORADO;41001010025P2;CIÊNCIAS DA COMPUTAÇÃO;SUL;SC;FLORIANÓPOLIS;5;5;371647;FELIPE SCHNEIDER COSTA;BRASIL;BRASILEIRO;MASCULINO;BRANCA;NÃO;45 A 49 ANOS;DOUTORADO;SIM;MATRICULADO;31Jul2017 0:00:00;31Jul2017 0:00:00;0;NÃO SE APLICA;NÃO SE APLICA;65994;129130
2017;CIÊNCIAS EXATAS E DA TERRA;2;CIÊNCIA DA COMPUTAÇÃO;UFSC;UNIVERSIDADE FEDERAL DE SANTA CATARINA;FEDERAL;PÚBLICA;ACADÊMICO;MESTRADO/DOUTORADO;41001010025P2;CIÊNCIAS DA COMPUTAÇÃO;SUL;SC;FLORIANÓPOLIS;5;5;2251933;FELIPE VOLPATO;BRASIL;BRASILEIRO;MASCULINO;BRANCA;NÃO;30 A 34 ANOS;MESTRADO;NÃO;TITULADO;03Aug2015 0:00:00;04Sep2017 0:00:00;25;ARQUITETURA PARA O GERENCIAMENTO AUTÔNOMO DE QOS EM AMBIENTES SDN;MARIO ANTONIO RIBEIRO DANTAS;65994;129130
2017;CIÊNCIAS EXATAS E DA TERRA;2;CIÊNCIA DA COMPUTAÇÃO;UFSC;UNIVERSIDADE FEDERAL DE SANTA CATARINA;FEDERAL;PÚBLICA;ACADÊMICO;MESTRADO/DOUTORADO;41001010025P2;CIÊNCIAS DA COMPUTAÇÃO;SUL;SC;FLORIANÓPOLIS;5;5;1503378;FERNANDA OLIVEIRA GOMES;BRASIL;BRASILEIRO;FEMININO;BRANCA;NÃO;20 A 24 ANOS;MESTRADO;SIM;MATRICULADO;31Jul2017 0:00:00;31Jul2017 0:00:00;0;NÃO SE APLICA;NÃO SE APLICA;65994;129130
2017;CIÊNCIAS EXATAS E DA TERRA;2;CIÊNCIA DA COMPUTAÇÃO;UFSC;UNIVERSIDADE FEDERAL DE SANTA CATARINA;FEDERAL;PÚBLICA;ACADÊMICO;MESTRADO/DOUTORADO;41001010025P2;CIÊNCIAS DA COMPUTAÇÃO;SUL;SC;FLORIANÓPOLIS;5;5;2311246;FERNANDO DA CRUZ PINHEIRO;BRASIL;BRASILEIRO;MASCULINO;BRANCA;NÃO;30 A 34 ANOS;MESTRADO;SIM;MATRICULADO;31Jul2017 0:00:00;31Jul2017 0:00:00;0;NÃO SE APLICA;NÃO SE APLICA;65994;129130
2017;CIÊNCIAS EXATAS E DA TERRA;2;CIÊNCIA DA COMPUTAÇÃO;UFSC;UNIVERSIDADE FEDERAL DE SANTA CATARINA;FEDERAL;PÚBLICA;ACADÊMICO;MESTRADO/DOUTORADO;41001010025P2;CIÊNCIAS DA COMPUTAÇÃO;SUL;SC;FLORIANÓPOLIS;5;5;337936;FERNANDO LUIS BORDIGNON;BRASIL;BRASILEIRO;MASCULINO;BRANCA;NÃO;30 A 34 ANOS;DOUTORADO;NÃO;MATRICULADO;11Mar2013 0:00:00;11Mar2013 0:00:00;0;NÃO SE APLICA;NÃO SE APLICA;65994;129130
2017;CIÊNCIAS EXATAS E DA TERRA;2;CIÊNCIA DA COMPUTAÇÃO;UFSC;UNIVERSIDADE FEDERAL DE SANTA CATARINA;FEDERAL;PÚBLICA;ACADÊMICO;MESTRADO/DOUTORADO;41001010025P2;CIÊNCIAS DA COMPUTAÇÃO;SUL;SC;FLORIANÓPOLIS;5;5;1134208;GABRIEL ANTONIO DA SILVA;BRASIL;BRASILEIRO;MASCULINO;BRANCA;NÃO;25 A 29 ANOS;MESTRADO;NÃO;ABANDONOU;10Mar2014 0:00:00;10Mar2017 0:00:00;0;NÃO SE APLICA;NÃO SE APLICA;65994;129130
2017;CIÊNCIAS EXATAS E DA TERRA;2;CIÊNCIA DA COMPUTAÇÃO;UFSC;UNIVERSIDADE FEDERAL DE SANTA CATARINA;FEDERAL;PÚBLICA;ACADÊMICO;MESTRADO/DOUTORADO;41001010025P2;CIÊNCIAS DA COMPUTAÇÃO;SUL;SC;FLORIANÓPOLIS;5;5;2082963;GABRIEL ARTHUR GERBER ANDRADE;BRASIL;BRASILEIRO;MASCULINO;BRANCA;NÃO;25 A 29 ANOS;MESTRADO;NÃO;TITULADO;02Mar2015 0:00:00;17Feb2017 0:00:00;24;EXPLOITING CANONICAL DEPENDENCE CHAINS AND ADDRESS BIASING CONSTRAINTS TO IMPROVE RANDOM TEST GENERATION FOR SHARED-MEMORY VERIFICATION;LUIZ CLAUDIO VILLAR DOS SANTOS;65994;129130
2017;CIÊNCIAS EXATAS E DA TERRA;2;CIÊNCIA DA COMPUTAÇÃO;UFSC;UNIVERSIDADE FEDERAL DE SANTA CATARINA;FEDERAL;PÚBLICA;ACADÊMICO;MESTRADO/DOUTORADO;41001010025P2;CIÊNCIAS DA COMPUTAÇÃO;SUL;SC;FLORIANÓPOLIS;5;5;1386573;GABRIEL BEIMS BRASCHER;BRASIL;BRASILEIRO;MASCULINO;BRANCA;NÃO;20 A 24 ANOS;MESTRADO;NÃO;MATRICULADO;14Mar2016 0:00:00;14Mar2016 0:00:00;0;NÃO SE APLICA;NÃO SE APLICA;65994;129130
2017;CIÊNCIAS EXATAS E DA TERRA;2;CIÊNCIA DA COMPUTAÇÃO;UFSC;UNIVERSIDADE FEDERAL DE SANTA CATARINA;FEDERAL;PÚBLICA;ACADÊMICO;MESTRADO/DOUTORADO;41001010025P2;CIÊNCIAS DA COMPUTAÇÃO;SUL;SC;FLORIANÓPOLIS;5;5;1148727;GABRIEL GARCIA BECKER;BRASIL;BRASILEIRO;MASCULINO;NÃO DECLARADO;NÃO;25 A 29 ANOS;MESTRADO;NÃO;DESLIGADO;10Mar2014 0:00:00;30Mar2017 0:00:00;0;NÃO SE APLICA;NÃO SE APLICA;65994;129130
2017;CIÊNCIAS EXATAS E DA TERRA;2;CIÊNCIA DA COMPUTAÇÃO;UFSC;UNIVERSIDADE FEDERAL DE SANTA CATARINA;FEDERAL;PÚBLICA;ACADÊMICO;MESTRADO/DOUTORADO;41001010025P2;CIÊNCIAS DA COMPUTAÇÃO;SUL;SC;FLORIANÓPOLIS;5;5;1148721;GEOMAR ANDRE SCHREINER;BRASIL;BRASILEIRO;MASCULINO;BRANCA;NÃO;25 A 29 ANOS;DOUTORADO;NÃO;MATRICULADO;14Mar2016 0:00:00;14Mar2016 0:00:00;0;NÃO SE APLICA;NÃO SE APLICA;65994;129130
2017;CIÊNCIAS EXATAS E DA TERRA;2;CIÊNCIA DA COMPUTAÇÃO;UFSC;UNIVERSIDADE FEDERAL DE SANTA CATARINA;FEDERAL;PÚBLICA;ACADÊMICO;MESTRADO/DOUTORADO;41001010025P2;CIÊNCIAS DA COMPUTAÇÃO;SUL;SC;FLORIANÓPOLIS;5;5;2085282;GERSON LUIZ CAMILLO;BRASIL;BRASILEIRO;MASCULINO;BRANCA;NÃO;45 A 49 ANOS;MESTRADO;NÃO;MATRICULADO;02Mar2015 0:00:00;02Mar2015 0:00:00;0;NÃO SE APLICA;NÃO SE APLICA;65994;129130
2017;CIÊNCIAS EXATAS E DA TERRA;2;CIÊNCIA DA COMPUTAÇÃO;UFSC;UNIVERSIDADE FEDERAL DE SANTA CATARINA;FEDERAL;PÚBLICA;ACADÊMICO;MESTRADO/DOUTORADO;41001010025P2;CIÊNCIAS DA COMPUTAÇÃO;SUL;SC;FLORIANÓPOLIS;5;5;83087;GIANI PETRI;BRASIL;BRASILEIRO;MASCULINO;BRANCA;NÃO;30 A 34 ANOS;DOUTORADO;NÃO;MATRICULADO;02Mar2015 0:00:00;02Mar2015 0:00:00;0;NÃO SE APLICA;NÃO SE APLICA;65994;129130
2017;CIÊNCIAS EXATAS E DA TERRA;2;CIÊNCIA DA COMPUTAÇÃO;UFSC;UNIVERSIDADE FEDERAL DE SANTA CATARINA;FEDERAL;PÚBLICA;ACADÊMICO;MESTRADO/DOUTORADO;41001010025P2;CIÊNCIAS DA COMPUTAÇÃO;SUL;SC;FLORIANÓPOLIS;5;5;2423126;GUILHERME AGUIAR;BRASIL;BRASILEIRO;MASCULINO;BRANCA;NÃO;25 A 29 ANOS;MESTRADO;NÃO;MATRICULADO;14Mar2016 0:00:00;14Mar2016 0:00:00;0;NÃO SE APLICA;NÃO SE APLICA;65994;129130
2017;CIÊNCIAS EXATAS E DA TERRA;2;CIÊNCIA DA COMPUTAÇÃO;UFSC;UNIVERSIDADE FEDERAL DE SANTA CATARINA;FEDERAL;PÚBLICA;ACADÊMICO;MESTRADO/DOUTORADO;41001010025P2;CIÊNCIAS DA COMPUTAÇÃO;SUL;SC;FLORIANÓPOLIS;5;5;63427;GUSTAVO PEREIRA MATEUS;BRASIL;BRASILEIRO;MASCULINO;BRANCA;NÃO;30 A 34 ANOS;DOUTORADO;NÃO;TITULADO;11Mar2013 0:00:00;11Dec2017 0:00:00;57;UM MODELO FUZZY PARA CONTROLE DINÂMICO DO TAMANHO DE QUADROS EM REDES SEM FIO;SILVIA MODESTO NASSAR;65994;129130
2017;CIÊNCIAS EXATAS E DA TERRA;2;CIÊNCIA DA COMPUTAÇÃO;UFSC;UNIVERSIDADE FEDERAL DE SANTA CATARINA;FEDERAL;PÚBLICA;ACADÊMICO;MESTRADO/DOUTORADO;41001010025P2;CIÊNCIAS DA COMPUTAÇÃO;SUL;SC;FLORIANÓPOLIS;5;5;2773123;HALLAN MEDEIROS;BRASIL;BRASILEIRO;MASCULINO;BRANCA;NÃO;35 A 39 ANOS;MESTRADO;SIM;MATRICULADO;31Jul2017 0:00:00;31Jul2017 0:00:00;0;NÃO SE APLICA;NÃO SE APLICA;65994;129130
2017;CIÊNCIAS EXATAS E DA TERRA;2;CIÊNCIA DA COMPUTAÇÃO;UFSC;UNIVERSIDADE FEDERAL DE SANTA CATARINA;FEDERAL;PÚBLICA;ACADÊMICO;MESTRADO/DOUTORADO;41001010025P2;CIÊNCIAS DA COMPUTAÇÃO;SUL;SC;FLORIANÓPOLIS;5;5;632014;HUGO VAZ SAMPAIO;BRASIL;BRASILEIRO;MASCULINO;BRANCA;NÃO;25 A 29 ANOS;DOUTORADO;SIM;MATRICULADO;06Mar2017 0:00:00;06Mar2017 0:00:00;0;NÃO SE APLICA;NÃO SE APLICA;65994;129130
2017;CIÊNCIAS EXATAS E DA TERRA;2;CIÊNCIA DA COMPUTAÇÃO;UFSC;UNIVERSIDADE FEDERAL DE SANTA CATARINA;FEDERAL;PÚBLICA;ACADÊMICO;MESTRADO/DOUTORADO;41001010025P2;CIÊNCIAS DA COMPUTAÇÃO;SUL;SC;FLORIANÓPOLIS;5;5;702580;HYLSON VESCOVI NETTO;BRASIL;BRASILEIRO;MASCULINO;NÃO DECLARADO;NÃO;40 A 44 ANOS;DOUTORADO;NÃO;TITULADO;24Sep2012 0:00:00;28Mar2017 0:00:00;54;ARMAZENAMENTO DE DADOS EFICIENTE TOLERANTE A FALTAS BIZANTINAS EM MÚLTIPLAS NUVENS COM COORDENAÇÃO DE METADADOS INTEGRADA A UM GERENCIADOR DE CONTAINERS;CARINA FRIEDRICH DORNELES;65994;129130
2017;CIÊNCIAS EXATAS E DA TERRA;2;CIÊNCIA DA COMPUTAÇÃO;UFSC;UNIVERSIDADE FEDERAL DE SANTA CATARINA;FEDERAL;PÚBLICA;ACADÊMICO;MESTRADO/DOUTORADO;41001010025P2;CIÊNCIAS DA COMPUTAÇÃO;SUL;SC;FLORIANÓPOLIS;5;5;541090;ISAAC LEONARDO SANTOS SACRAMENTO;BRASIL;BRASILEIRO;MASCULINO;PRETA;NÃO;30 A 34 ANOS;DOUTORADO;NÃO;MATRICULADO;02Mar2015 0:00:00;02Mar2015 0:00:00;0;NÃO SE APLICA;NÃO SE APLICA;65994;129130
2017;CIÊNCIAS EXATAS E DA TERRA;2;CIÊNCIA DA COMPUTAÇÃO;UFSC;UNIVERSIDADE FEDERAL DE SANTA CATARINA;FEDERAL;PÚBLICA;ACADÊMICO;MESTRADO/DOUTORADO;41001010025P2;CIÊNCIAS DA COMPUTAÇÃO;SUL;SC;FLORIANÓPOLIS;5;5;632919;ISMAEL SEIDEL;BRASIL;BRASILEIRO;MASCULINO;BRANCA;NÃO;25 A 29 ANOS;DOUTORADO;NÃO;MATRICULADO;04Aug2014 0:00:00;04Aug2014 0:00:00;0;NÃO SE APLICA;NÃO SE APLICA;65994;129130
2017;CIÊNCIAS EXATAS E DA TERRA;2;CIÊNCIA DA COMPUTAÇÃO;UFSC;UNIVERSIDADE FEDERAL DE SANTA CATARINA;FEDERAL;PÚBLICA;ACADÊMICO;MESTRADO/DOUTORADO;41001010025P2;CIÊNCIAS DA COMPUTAÇÃO;SUL;SC;FLORIANÓPOLIS;5;5;845356;ITALO LOPES OLIVEIRA;BRASIL;BRASILEIRO;MASCULINO;PARDA;NÃO;25 A 29 ANOS;DOUTORADO;NÃO;MATRICULADO;14Mar2016 0:00:00;14Mar2016 0:00:00;0;NÃO SE APLICA;NÃO SE APLICA;65994;129130
2017;CIÊNCIAS EXATAS E DA TERRA;2;CIÊNCIA DA COMPUTAÇÃO;UFSC;UNIVERSIDADE FEDERAL DE SANTA CATARINA;FEDERAL;PÚBLICA;ACADÊMICO;MESTRADO/DOUTORADO;41001010025P2;CIÊNCIAS DA COMPUTAÇÃO;SUL;SC;FLORIANÓPOLIS;5;5;807799;IVAN LUIZ SALVADORI;BRASIL;BRASILEIRO;MASCULINO;BRANCA;NÃO;30 A 34 ANOS;DOUTORADO;NÃO;MATRICULADO;02Mar2015 0:00:00;02Mar2015 0:00:00;0;NÃO SE APLICA;NÃO SE APLICA;65994;129130
2017;CIÊNCIAS EXATAS E DA TERRA;2;CIÊNCIA DA COMPUTAÇÃO;UFSC;UNIVERSIDADE FEDERAL DE SANTA CATARINA;FEDERAL;PÚBLICA;ACADÊMICO;MESTRADO/DOUTORADO;41001010025P2;CIÊNCIAS DA COMPUTAÇÃO;SUL;SC;FLORIANÓPOLIS;5;5;2423011;JEAN CARLOS OLIVEIRA DE ABREU;BRASIL;BRASILEIRO;MASCULINO;PARDA;NÃO;30 A 34 ANOS;MESTRADO;NÃO;MATRICULADO;14Mar2016 0:00:00;14Mar2016 0:00:00;0;NÃO SE APLICA;NÃO SE APLICA;65994;129130
2017;CIÊNCIAS EXATAS E DA TERRA;2;CIÊNCIA DA COMPUTAÇÃO;UFSC;UNIVERSIDADE FEDERAL DE SANTA CATARINA;FEDERAL;PÚBLICA;ACADÊMICO;MESTRADO/DOUTORADO;41001010025P2;CIÊNCIAS DA COMPUTAÇÃO;SUL;SC;FLORIANÓPOLIS;5;5;2369484;JOAO MARCUS ALVES;BRASIL;BRASILEIRO;MASCULINO;BRANCA;NÃO;25 A 29 ANOS;MESTRADO;NÃO;TITULADO;03Aug2015 0:00:00;10Jul2017 0:00:00;23;THE ADEQUATE MODEL: SOFTWARE QUALITY EVALUATION MODEL FOR TELEMEDICINE AND TELEHEALTH SYSTEMS;CHRISTIANE ANNELIESE GRESSE VON WANGENHEIM;65994;129130
2017;CIÊNCIAS EXATAS E DA TERRA;2;CIÊNCIA DA COMPUTAÇÃO;UFSC;UNIVERSIDADE FEDERAL DE SANTA CATARINA;FEDERAL;PÚBLICA;ACADÊMICO;MESTRADO/DOUTORADO;41001010025P2;CIÊNCIAS DA COMPUTAÇÃO;SUL;SC;FLORIANÓPOLIS;5;5;105831;JORGE WERNER;BRASIL;BRASILEIRO;MASCULINO;BRANCA;NÃO;35 A 39 ANOS;DOUTORADO;NÃO;TITULADO;11Mar2013 0:00:00;28Nov2017 0:00:00;57;UMA ABORDAGEM DE PRIVACIDADE NO GERENCIAMENTO DE IDENTIDADE NA NUVEM;CARLA MERKLE WESTPHALL;65994;129130
2017;CIÊNCIAS EXATAS E DA TERRA;2;CIÊNCIA DA COMPUTAÇÃO;UFSC;UNIVERSIDADE FEDERAL DE SANTA CATARINA;FEDERAL;PÚBLICA;ACADÊMICO;MESTRADO/DOUTORADO;41001010025P2;CIÊNCIAS DA COMPUTAÇÃO;SUL;SC;FLORIANÓPOLIS;5;5;2421542;JOSE ROQUE BETIOL JUNIOR;BRASIL;BRASILEIRO;MASCULINO;BRANCA;NÃO;25 A 29 ANOS;MESTRADO;NÃO;MATRICULADO;14Mar2016 0:00:00;14Mar2016 0:00:00;0;NÃO SE APLICA;NÃO SE APLICA;65994;129130
2017;CIÊNCIAS EXATAS E DA TERRA;2;CIÊNCIA DA COMPUTAÇÃO;UFSC;UNIVERSIDADE FEDERAL DE SANTA CATARINA;FEDERAL;PÚBLICA;ACADÊMICO;MESTRADO/DOUTORADO;41001010025P2;CIÊNCIAS DA COMPUTAÇÃO;SUL;SC;FLORIANÓPOLIS;5;5;1135945;JUAREZ ANGELO PIAZZA SACENTI;BRASIL;BRASILEIRO;MASCULINO;BRANCA;NÃO;25 A 29 ANOS;DOUTORADO;NÃO;MATRICULADO;14Mar2016 0:00:00;14Mar2016 0:00:00;0;NÃO SE APLICA;NÃO SE APLICA;65994;129130
2017;CIÊNCIAS EXATAS E DA TERRA;2;CIÊNCIA DA COMPUTAÇÃO;UFSC;UNIVERSIDADE FEDERAL DE SANTA CATARINA;FEDERAL;PÚBLICA;ACADÊMICO;MESTRADO/DOUTORADO;41001010025P2;CIÊNCIAS DA COMPUTAÇÃO;SUL;SC;FLORIANÓPOLIS;5;5;124609;KLEBER MAGNO MACIEL VIEIRA;BRASIL;BRASILEIRO;MASCULINO;BRANCA;NÃO;35 A 39 ANOS;DOUTORADO;NÃO;TITULADO;24Sep2012 0:00:00;20Sep2017 0:00:00;60;GERENCIAMENTO AUTONÔMICO DE SEGURANÇA EM CLOUD: PROVENDO RESPOSTAS À INTRUSÃO E CONSIDERANDO BIG DATA;CARLOS BECKER WESTPHALL;65994;129130
2017;CIÊNCIAS EXATAS E DA TERRA;2;CIÊNCIA DA COMPUTAÇÃO;UFSC;UNIVERSIDADE FEDERAL DE SANTA CATARINA;FEDERAL;PÚBLICA;ACADÊMICO;MESTRADO/DOUTORADO;41001010025P2;CIÊNCIAS DA COMPUTAÇÃO;SUL;SC;FLORIANÓPOLIS;5;5;2639859;LAIS BORIN;BRASIL;BRASILEIRO;FEMININO;BRANCA;NÃO;20 A 24 ANOS;MESTRADO;SIM;MATRICULADO;06Mar2017 0:00:00;06Mar2017 0:00:00;0;NÃO SE APLICA;NÃO SE APLICA;65994;129130
2017;CIÊNCIAS EXATAS E DA TERRA;2;CIÊNCIA DA COMPUTAÇÃO;UFSC;UNIVERSIDADE FEDERAL DE SANTA CATARINA;FEDERAL;PÚBLICA;ACADÊMICO;MESTRADO/DOUTORADO;41001010025P2;CIÊNCIAS DA COMPUTAÇÃO;SUL;SC;FLORIANÓPOLIS;5;5;2085300;LEANDRO AMANCIO;BRASIL;BRASILEIRO;MASCULINO;BRANCA;NÃO;35 A 39 ANOS;MESTRADO;NÃO;TITULADO;02Mar2015 0:00:00;14Dec2017 0:00:00;33;RANQUEAMENTO DE RESPOSTAS EM COMUNIDADES DE PERGUNTA E RESPOSTA BASEADO EM ATUALIDADE E QUALIDADE: UM ESTUDO DE CASO COM STACK OVERFLOW;CARINA FRIEDRICH DORNELES;65994;129130
2017;CIÊNCIAS EXATAS E DA TERRA;2;CIÊNCIA DA COMPUTAÇÃO;UFSC;UNIVERSIDADE FEDERAL DE SANTA CATARINA;FEDERAL;PÚBLICA;ACADÊMICO;MESTRADO/DOUTORADO;41001010025P2;CIÊNCIAS DA COMPUTAÇÃO;SUL;SC;FLORIANÓPOLIS;5;5;1445277;LEANDRO LOFFI;BRASIL;BRASILEIRO;MASCULINO;BRANCA;NÃO;20 A 24 ANOS;MESTRADO;SIM;MATRICULADO;06Mar2017 0:00:00;06Mar2017 0:00:00;0;NÃO SE APLICA;NÃO SE APLICA;65994;129130
2017;CIÊNCIAS EXATAS E DA TERRA;2;CIÊNCIA DA COMPUTAÇÃO;UFSC;UNIVERSIDADE FEDERAL DE SANTA CATARINA;FEDERAL;PÚBLICA;ACADÊMICO;MESTRADO/DOUTORADO;41001010025P2;CIÊNCIAS DA COMPUTAÇÃO;SUL;SC;FLORIANÓPOLIS;5;5;1148710;LUCAS BOPPRE NIEHUES;BRASIL;BRASILEIRO;MASCULINO;NÃO DECLARADO;NÃO;25 A 29 ANOS;MESTRADO;NÃO;DESLIGADO;10Mar2014 0:00:00;24Apr2017 0:00:00;0;NÃO SE APLICA;NÃO SE APLICA;65994;129130
2017;CIÊNCIAS EXATAS E DA TERRA;2;CIÊNCIA DA COMPUTAÇÃO;UFSC;UNIVERSIDADE FEDERAL DE SANTA CATARINA;FEDERAL;PÚBLICA;ACADÊMICO;MESTRADO/DOUTORADO;41001010025P2;CIÊNCIAS DA COMPUTAÇÃO;SUL;SC;FLORIANÓPOLIS;5;5;1470211;LUCAS MARCUS BODNAR;BRASIL;BRASILEIRO;MASCULINO;BRANCA;NÃO;25 A 29 ANOS;MESTRADO;NÃO;TITULADO;04Aug2014 0:00:00;03Aug2017 0:00:00;36;FEDERAÇÃO DINÂMICA DE IDENTIDADE COM CONTROLE DE DISSEMINAÇÃO DE ATRIBUTOS;CARLA MERKLE WESTPHALL;65994;129130
2017;CIÊNCIAS EXATAS E DA TERRA;2;CIÊNCIA DA COMPUTAÇÃO;UFSC;UNIVERSIDADE FEDERAL DE SANTA CATARINA;FEDERAL;PÚBLICA;ACADÊMICO;MESTRADO/DOUTORADO;41001010025P2;CIÊNCIAS DA COMPUTAÇÃO;SUL;SC;FLORIANÓPOLIS;5;5;1148707;LUCAS PANDOLFO PERIN;BRASIL;BRASILEIRO;MASCULINO;BRANCA;NÃO;25 A 29 ANOS;DOUTORADO;NÃO;MATRICULADO;14Mar2016 0:00:00;14Mar2016 0:00:00;0;NÃO SE APLICA;NÃO SE APLICA;65994;129130
2017;CIÊNCIAS EXATAS E DA TERRA;2;CIÊNCIA DA COMPUTAÇÃO;UFSC;UNIVERSIDADE FEDERAL DE SANTA CATARINA;FEDERAL;PÚBLICA;ACADÊMICO;MESTRADO/DOUTORADO;41001010025P2;CIÊNCIAS DA COMPUTAÇÃO;SUL;SC;FLORIANÓPOLIS;5;5;1149638;LUCAS PEREIRA DA SILVA;BRASIL;BRASILEIRO;MASCULINO;BRANCA;NÃO;25 A 29 ANOS;DOUTORADO;NÃO;MATRICULADO;08Aug2016 0:00:00;08Aug2016 0:00:00;0;NÃO SE APLICA;NÃO SE APLICA;65994;129130
2017;CIÊNCIAS EXATAS E DA TERRA;2;CIÊNCIA DA COMPUTAÇÃO;UFSC;UNIVERSIDADE FEDERAL DE SANTA CATARINA;FEDERAL;PÚBLICA;ACADÊMICO;MESTRADO/DOUTORADO;41001010025P2;CIÊNCIAS DA COMPUTAÇÃO;SUL;SC;FLORIANÓPOLIS;5;5;2421539;LUCAS VIANA KNOCHENHAUER;BRASIL;BRASILEIRO;MASCULINO;BRANCA;NÃO;25 A 29 ANOS;MESTRADO;NÃO;MATRICULADO;14Mar2016 0:00:00;14Mar2016 0:00:00;0;NÃO SE APLICA;NÃO SE APLICA;65994;129130
2017;CIÊNCIAS EXATAS E DA TERRA;2;CIÊNCIA DA COMPUTAÇÃO;UFSC;UNIVERSIDADE FEDERAL DE SANTA CATARINA;FEDERAL;PÚBLICA;ACADÊMICO;MESTRADO/DOUTORADO;41001010025P2;CIÊNCIAS DA COMPUTAÇÃO;SUL;SC;FLORIANÓPOLIS;5;5;807819;LUIS EDUARDO RAMOS DE CARVALHO;BRASIL;BRASILEIRO;MASCULINO;BRANCA;NÃO;25 A 29 ANOS;DOUTORADO;NÃO;MATRICULADO;02Mar2015 0:00:00;02Mar2015 0:00:00;0;NÃO SE APLICA;NÃO SE APLICA;65994;129130
2017;CIÊNCIAS EXATAS E DA TERRA;2;CIÊNCIA DA COMPUTAÇÃO;UFSC;UNIVERSIDADE FEDERAL DE SANTA CATARINA;FEDERAL;PÚBLICA;ACADÊMICO;MESTRADO/DOUTORADO;41001010025P2;CIÊNCIAS DA COMPUTAÇÃO;SUL;SC;FLORIANÓPOLIS;5;5;2458100;LUIZ HENRIQUE DE LORENZI CANCELLIER;BRASIL;BRASILEIRO;MASCULINO;BRANCA;NÃO;20 A 24 ANOS;MESTRADO;SIM;MATRICULADO;06Mar2017 0:00:00;06Mar2017 0:00:00;0;NÃO SE APLICA;NÃO SE APLICA;65994;129130
2017;CIÊNCIAS EXATAS E DA TERRA;2;CIÊNCIA DA COMPUTAÇÃO;UFSC;UNIVERSIDADE FEDERAL DE SANTA CATARINA;FEDERAL;PÚBLICA;ACADÊMICO;MESTRADO/DOUTORADO;41001010025P2;CIÊNCIAS DA COMPUTAÇÃO;SUL;SC;FLORIANÓPOLIS;5;5;317423;LUIZ HENRIQUE ZAMBOM SANTANA;BRASIL;BRASILEIRO;MASCULINO;PARDA;NÃO;30 A 34 ANOS;DOUTORADO;NÃO;MATRICULADO;02Mar2015 0:00:00;02Mar2015 0:00:00;0;NÃO SE APLICA;NÃO SE APLICA;65994;129130
2017;CIÊNCIAS EXATAS E DA TERRA;2;CIÊNCIA DA COMPUTAÇÃO;UFSC;UNIVERSIDADE FEDERAL DE SANTA CATARINA;FEDERAL;PÚBLICA;ACADÊMICO;MESTRADO/DOUTORADO;41001010025P2;CIÊNCIAS DA COMPUTAÇÃO;SUL;SC;FLORIANÓPOLIS;5;5;2466269;MARCIO MONTEIRO;BRASIL;BRASILEIRO;MASCULINO;BRANCA;NÃO;25 A 29 ANOS;MESTRADO;SIM;MATRICULADO;31Jul2017 0:00:00;31Jul2017 0:00:00;0;NÃO SE APLICA;NÃO SE APLICA;65994;129130
2017;CIÊNCIAS EXATAS E DA TERRA;2;CIÊNCIA DA COMPUTAÇÃO;UFSC;UNIVERSIDADE FEDERAL DE SANTA CATARINA;FEDERAL;PÚBLICA;ACADÊMICO;MESTRADO/DOUTORADO;41001010025P2;CIÊNCIAS DA COMPUTAÇÃO;SUL;SC;FLORIANÓPOLIS;5;5;2083033;MARCO AURELIO BEBER;BRASIL;BRASILEIRO;MASCULINO;BRANCA;NÃO;25 A 29 ANOS;MESTRADO;NÃO;TITULADO;02Mar2015 0:00:00;04Jul2017 0:00:00;28;INDIVIDUAL AND GROUP ACTIVITY RECOGNITION IN MOVING OBJECT TRAJECTORIES;VANIA BOGORNY;65994;129130
2017;CIÊNCIAS EXATAS E DA TERRA;2;CIÊNCIA DA COMPUTAÇÃO;UFSC;UNIVERSIDADE FEDERAL DE SANTA CATARINA;FEDERAL;PÚBLICA;ACADÊMICO;MESTRADO/DOUTORADO;41001010025P2;CIÊNCIAS DA COMPUTAÇÃO;SUL;SC;FLORIANÓPOLIS;5;5;2085311;MARIA ELENA VILLARREAL;BRASIL;BRASILEIRO;FEMININO;BRANCA;NÃO;20 A 24 ANOS;MESTRADO;NÃO;TITULADO;02Mar2015 0:00:00;23Jun2017 0:00:00;28;TOKEN DE PRIVACIDADE: UM MECANISMO DE ESPECIFICAÇÃO DE PREFERÊNCIAS DE PRIVACIDADE PARA SISTEMAS DE GERENCIAMENTO DE IDENTIDADE EM NUVEM;CARLA MERKLE WESTPHALL;65994;129130
2017;CIÊNCIAS EXATAS E DA TERRA;2;CIÊNCIA DA COMPUTAÇÃO;UFSC;UNIVERSIDADE FEDERAL DE SANTA CATARINA;FEDERAL;PÚBLICA;ACADÊMICO;MESTRADO/DOUTORADO;41001010025P2;CIÊNCIAS DA COMPUTAÇÃO;SUL;SC;FLORIANÓPOLIS;5;5;2421464;MARIA ELOISA COSTA;BRASIL;BRASILEIRO;FEMININO;NÃO DISPÕE DA INFORMAÇÃO;NÃO;30 A 34 ANOS;MESTRADO;NÃO;ABANDONOU;14Mar2016 0:00:00;07Nov2017 0:00:00;0;NÃO SE APLICA;NÃO SE APLICA;65994;129130
2017;CIÊNCIAS EXATAS E DA TERRA;2;CIÊNCIA DA COMPUTAÇÃO;UFSC;UNIVERSIDADE FEDERAL DE SANTA CATARINA;FEDERAL;PÚBLICA;ACADÊMICO;MESTRADO/DOUTORADO;41001010025P2;CIÊNCIAS DA COMPUTAÇÃO;SUL;SC;FLORIANÓPOLIS;5;5;634286;MARIANA DEHON COSTA E LIMA;BRASIL;BRASILEIRO;FEMININO;PARDA;NÃO;25 A 29 ANOS;DOUTORADO;NÃO;MATRICULADO;10Mar2014 0:00:00;10Mar2014 0:00:00;0;NÃO SE APLICA;NÃO SE APLICA;65994;129130
2017;CIÊNCIAS EXATAS E DA TERRA;2;CIÊNCIA DA COMPUTAÇÃO;UFSC;UNIVERSIDADE FEDERAL DE SANTA CATARINA;FEDERAL;PÚBLICA;ACADÊMICO;MESTRADO/DOUTORADO;41001010025P2;CIÊNCIAS DA COMPUTAÇÃO;SUL;SC;FLORIANÓPOLIS;5;5;736826;MATEUS FELIPE FREITAS;BRASIL;BRASILEIRO;MASCULINO;BRANCA;NÃO;25 A 29 ANOS;MESTRADO;NÃO;MATRICULADO;02Mar2015 0:00:00;02Mar2015 0:00:00;0;NÃO SE APLICA;NÃO SE APLICA;65994;129130
2017;CIÊNCIAS EXATAS E DA TERRA;2;CIÊNCIA DA COMPUTAÇÃO;UFSC;UNIVERSIDADE FEDERAL DE SANTA CATARINA;FEDERAL;PÚBLICA;ACADÊMICO;MESTRADO/DOUTORADO;41001010025P2;CIÊNCIAS DA COMPUTAÇÃO;SUL;SC;FLORIANÓPOLIS;5;5;141582;MATEUS KREPSKY LUDWICH;BRASIL;BRASILEIRO;MASCULINO;BRANCA;NÃO;30 A 34 ANOS;DOUTORADO;NÃO;MATRICULADO;24Sep2012 0:00:00;24Sep2012 0:00:00;0;NÃO SE APLICA;NÃO SE APLICA;65994;129130
2017;CIÊNCIAS EXATAS E DA TERRA;2;CIÊNCIA DA COMPUTAÇÃO;UFSC;UNIVERSIDADE FEDERAL DE SANTA CATARINA;FEDERAL;PÚBLICA;ACADÊMICO;MESTRADO/DOUTORADO;41001010025P2;CIÊNCIAS DA COMPUTAÇÃO;SUL;SC;FLORIANÓPOLIS;5;5;807826;MAURICIO SIMOES DE OLIVEIRA;BRASIL;BRASILEIRO;MASCULINO;NÃO DECLARADO;NÃO;25 A 29 ANOS;MESTRADO;NÃO;TITULADO;11Mar2013 0:00:00;18Jan2017 0:00:00;46;ATUALIZAÇÃO DINÂMICA DE POLÍTICAS DE ASSINATURA DIGITAL;RICARDO FELIPE CUSTODIO;65994;129130
2017;CIÊNCIAS EXATAS E DA TERRA;2;CIÊNCIA DA COMPUTAÇÃO;UFSC;UNIVERSIDADE FEDERAL DE SANTA CATARINA;FEDERAL;PÚBLICA;ACADÊMICO;MESTRADO/DOUTORADO;41001010025P2;CIÊNCIAS DA COMPUTAÇÃO;SUL;SC;FLORIANÓPOLIS;5;5;2639983;MUNYQUE MITTELMANN;BRASIL;BRASILEIRO;FEMININO;BRANCA;NÃO;20 A 24 ANOS;MESTRADO;SIM;MATRICULADO;06Mar2017 0:00:00;06Mar2017 0:00:00;0;NÃO SE APLICA;NÃO SE APLICA;65994;129130
2017;CIÊNCIAS EXATAS E DA TERRA;2;CIÊNCIA DA COMPUTAÇÃO;UFSC;UNIVERSIDADE FEDERAL DE SANTA CATARINA;FEDERAL;PÚBLICA;ACADÊMICO;MESTRADO/DOUTORADO;41001010025P2;CIÊNCIAS DA COMPUTAÇÃO;SUL;SC;FLORIANÓPOLIS;5;5;938668;MURILLO LAGRANHA FLORES;BRASIL;BRASILEIRO;MASCULINO;BRANCA;NÃO;25 A 29 ANOS;MESTRADO;NÃO;MATRICULADO;08Aug2016 0:00:00;08Aug2016 0:00:00;0;NÃO SE APLICA;NÃO SE APLICA;65994;129130
2017;CIÊNCIAS EXATAS E DA TERRA;2;CIÊNCIA DA COMPUTAÇÃO;UFSC;UNIVERSIDADE FEDERAL DE SANTA CATARINA;FEDERAL;PÚBLICA;ACADÊMICO;MESTRADO/DOUTORADO;41001010025P2;CIÊNCIAS DA COMPUTAÇÃO;SUL;SC;FLORIANÓPOLIS;5;5;1983207;NATHALIA DA CRUZ ALVES;BRASIL;BRASILEIRO;FEMININO;BRANCA;NÃO;20 A 24 ANOS;MESTRADO;SIM;MATRICULADO;06Mar2017 0:00:00;06Mar2017 0:00:00;0;NÃO SE APLICA;NÃO SE APLICA;65994;129130
2017;CIÊNCIAS EXATAS E DA TERRA;2;CIÊNCIA DA COMPUTAÇÃO;UFSC;UNIVERSIDADE FEDERAL DE SANTA CATARINA;FEDERAL;PÚBLICA;ACADÊMICO;MESTRADO/DOUTORADO;41001010025P2;CIÊNCIAS DA COMPUTAÇÃO;SUL;SC;FLORIANÓPOLIS;5;5;58704;PABLO SCHOEFFEL;BRASIL;BRASILEIRO;MASCULINO;BRANCA;NÃO;35 A 39 ANOS;DOUTORADO;NÃO;MATRICULADO;03Aug2015 0:00:00;03Aug2015 0:00:00;0;NÃO SE APLICA;NÃO SE APLICA;65994;129130
2017;CIÊNCIAS EXATAS E DA TERRA;2;CIÊNCIA DA COMPUTAÇÃO;UFSC;UNIVERSIDADE FEDERAL DE SANTA CATARINA;FEDERAL;PÚBLICA;ACADÊMICO;MESTRADO/DOUTORADO;41001010025P2;CIÊNCIAS DA COMPUTAÇÃO;SUL;SC;FLORIANÓPOLIS;5;5;2085342;PAULO ARION FLORES;BRASIL;BRASILEIRO;MASCULINO;BRANCA;NÃO;35 A 39 ANOS;MESTRADO;NÃO;TITULADO;02Mar2015 0:00:00;28Aug2017 0:00:00;30;TSC: UMA ABORDAGEM PARA O CONTROLE DE RESTRIÇÕES DE INTEGRIDADE EM BANCOS DE DADOS EVENTUALMENTE CONSISTENTES;FRANK AUGUSTO SIQUEIRA;65994;129130
2017;CIÊNCIAS EXATAS E DA TERRA;2;CIÊNCIA DA COMPUTAÇÃO;UFSC;UNIVERSIDADE FEDERAL DE SANTA CATARINA;FEDERAL;PÚBLICA;ACADÊMICO;MESTRADO/DOUTORADO;41001010025P2;CIÊNCIAS DA COMPUTAÇÃO;SUL;SC;FLORIANÓPOLIS;5;5;2640131;PAULO CESAR PEREIRA JUNIOR;BRASIL;BRASILEIRO;MASCULINO;BRANCA;NÃO;20 A 24 ANOS;MESTRADO;SIM;MATRICULADO;06Mar2017 0:00:00;06Mar2017 0:00:00;0;NÃO SE APLICA;NÃO SE APLICA;65994;129130
2017;CIÊNCIAS EXATAS E DA TERRA;2;CIÊNCIA DA COMPUTAÇÃO;UFSC;UNIVERSIDADE FEDERAL DE SANTA CATARINA;FEDERAL;PÚBLICA;ACADÊMICO;MESTRADO/DOUTORADO;41001010025P2;CIÊNCIAS DA COMPUTAÇÃO;SUL;SC;FLORIANÓPOLIS;5;5;1276322;PEDRO HENRIQUE DE MELLO MORADO PENNA;BRASIL;BRASILEIRO;MASCULINO;NÃO DECLARADO;NÃO;25 A 29 ANOS;MESTRADO;NÃO;TITULADO;14Mar2016 0:00:00;01Aug2017 0:00:00;17;BINLPT: A WORKLOAD-AWARE PARALLEL LOOP SCHEDULER FOR LARGE-SCALE MULTICORE PLATFORMS;MARCIO BASTOS CASTRO;65994;129130
2017;CIÊNCIAS EXATAS E DA TERRA;2;CIÊNCIA DA COMPUTAÇÃO;UFSC;UNIVERSIDADE FEDERAL DE SANTA CATARINA;FEDERAL;PÚBLICA;ACADÊMICO;MESTRADO/DOUTORADO;41001010025P2;CIÊNCIAS DA COMPUTAÇÃO;SUL;SC;FLORIANÓPOLIS;5;5;2422981;PHELLIPE DELLA GIUSTINA PERIN;BRASIL;BRASILEIRO;MASCULINO;BRANCA;NÃO;20 A 24 ANOS;MESTRADO;NÃO;MATRICULADO;14Mar2016 0:00:00;14Mar2016 0:00:00;0;NÃO SE APLICA;NÃO SE APLICA;65994;129130
2017;CIÊNCIAS EXATAS E DA TERRA;2;CIÊNCIA DA COMPUTAÇÃO;UFSC;UNIVERSIDADE FEDERAL DE SANTA CATARINA;FEDERAL;PÚBLICA;ACADÊMICO;MESTRADO/DOUTORADO;41001010025P2;CIÊNCIAS DA COMPUTAÇÃO;SUL;SC;FLORIANÓPOLIS;5;5;66637;RAFAEL BOSSE BRINHOSA;BRASIL;BRASILEIRO;MASCULINO;BRANCA;NÃO;30 A 34 ANOS;DOUTORADO;SIM;MATRICULADO;06Mar2017 0:00:00;06Mar2017 0:00:00;0;NÃO SE APLICA;NÃO SE APLICA;65994;129130
2017;CIÊNCIAS EXATAS E DA TERRA;2;CIÊNCIA DA COMPUTAÇÃO;UFSC;UNIVERSIDADE FEDERAL DE SANTA CATARINA;FEDERAL;PÚBLICA;ACADÊMICO;MESTRADO/DOUTORADO;41001010025P2;CIÊNCIAS DA COMPUTAÇÃO;SUL;SC;FLORIANÓPOLIS;5;5;472062;RAFAEL DE SOUZA MENDES;BRASIL;BRASILEIRO;MASCULINO;BRANCA;NÃO;35 A 39 ANOS;DOUTORADO;NÃO;ABANDONOU;24Sep2012 0:00:00;25Sep2017 0:00:00;0;NÃO SE APLICA;NÃO SE APLICA;65994;129130
2017;CIÊNCIAS EXATAS E DA TERRA;2;CIÊNCIA DA COMPUTAÇÃO;UFSC;UNIVERSIDADE FEDERAL DE SANTA CATARINA;FEDERAL;PÚBLICA;ACADÊMICO;MESTRADO/DOUTORADO;41001010025P2;CIÊNCIAS DA COMPUTAÇÃO;SUL;SC;FLORIANÓPOLIS;5;5;181949;RAFAEL QUEIROZ GONCALVES;BRASIL;BRASILEIRO;MASCULINO;NÃO DECLARADO;NÃO;30 A 34 ANOS;DOUTORADO;NÃO;TITULADO;11Mar2013 0:00:00;22Mar2017 0:00:00;48;ENSINO DE GERENCIAMENTO DE PROJETOS DE SOFTWARE MEDIADO POR FERRAMENTAS;CHRISTIANE ANNELIESE GRESSE VON WANGENHEIM;65994;129130
2017;CIÊNCIAS EXATAS E DA TERRA;2;CIÊNCIA DA COMPUTAÇÃO;UFSC;UNIVERSIDADE FEDERAL DE SANTA CATARINA;FEDERAL;PÚBLICA;ACADÊMICO;MESTRADO/DOUTORADO;41001010025P2;CIÊNCIAS DA COMPUTAÇÃO;SUL;SC;FLORIANÓPOLIS;5;5;140910;RAMON HUGO DE SOUZA;BRASIL;BRASILEIRO;MASCULINO;BRANCA;NÃO;30 A 34 ANOS;DOUTORADO;NÃO;TITULADO;24Sep2012 0:00:00;15Feb2017 0:00:00;53;MAPEAMENTO DE QUALIDADE DE EXPERIÊNCIA (QOE) ATRAVÉS DE QUALIDADE DE SERVIÇO (QOS) FOCADO EM BASES DE DADOS DISTRIBUÍDAS;MARIO ANTONIO RIBEIRO DANTAS;65994;129130
2017;CIÊNCIAS EXATAS E DA TERRA;2;CIÊNCIA DA COMPUTAÇÃO;UFSC;UNIVERSIDADE FEDERAL DE SANTA CATARINA;FEDERAL;PÚBLICA;ACADÊMICO;MESTRADO/DOUTORADO;41001010025P2;CIÊNCIAS DA COMPUTAÇÃO;SUL;SC;FLORIANÓPOLIS;5;5;2417191;RAY WILLY NEIHEISER;ALEMANHA;ESTRANGEIRO;MASCULINO;BRANCA;NÃO;25 A 29 ANOS;MESTRADO;NÃO;TITULADO;03Aug2015 0:00:00;16Aug2017 0:00:00;24;BYZANTINE FAULT TOLERANT ARCHITECTURE IN GEOGRAPHICALLY DISTRIBUTED GRAPH DATABASES;LUCIANA DE OLIVEIRA RECH;65994;129130
2017;CIÊNCIAS EXATAS E DA TERRA;2;CIÊNCIA DA COMPUTAÇÃO;UFSC;UNIVERSIDADE FEDERAL DE SANTA CATARINA;FEDERAL;PÚBLICA;ACADÊMICO;MESTRADO/DOUTORADO;41001010025P2;CIÊNCIAS DA COMPUTAÇÃO;SUL;SC;FLORIANÓPOLIS;5;5;665981;RENAN OLIVEIRA NETTO;BRASIL;BRASILEIRO;MASCULINO;BRANCA;NÃO;20 A 24 ANOS;DOUTORADO;SIM;MATRICULADO;06Mar2017 0:00:00;06Mar2017 0:00:00;0;NÃO SE APLICA;NÃO SE APLICA;65994;129130
2017;CIÊNCIAS EXATAS E DA TERRA;2;CIÊNCIA DA COMPUTAÇÃO;UFSC;UNIVERSIDADE FEDERAL DE SANTA CATARINA;FEDERAL;PÚBLICA;ACADÊMICO;MESTRADO/DOUTORADO;41001010025P2;CIÊNCIAS DA COMPUTAÇÃO;SUL;SC;FLORIANÓPOLIS;5;5;665981;RENAN OLIVEIRA NETTO;BRASIL;BRASILEIRO;MASCULINO;BRANCA;NÃO;20 A 24 ANOS;MESTRADO;NÃO;TITULADO;02Mar2015 0:00:00;20Feb2017 0:00:00;24;ACELERAÇÃO DA LEGALIZAÇÃO INCREMENTAL MEDIANTE O USO DE ÁRVORES ESPACIAIS;JOSE LUIS ALMADA GUNTZEL;65994;129130
2017;CIÊNCIAS EXATAS E DA TERRA;2;CIÊNCIA DA COMPUTAÇÃO;UFSC;UNIVERSIDADE FEDERAL DE SANTA CATARINA;FEDERAL;PÚBLICA;ACADÊMICO;MESTRADO/DOUTORADO;41001010025P2;CIÊNCIAS DA COMPUTAÇÃO;SUL;SC;FLORIANÓPOLIS;5;5;59233;RICHARD HENRIQUE DE SOUZA;BRASIL;BRASILEIRO;MASCULINO;PARDA;NÃO;35 A 39 ANOS;DOUTORADO;NÃO;MATRICULADO;02Mar2015 0:00:00;02Mar2015 0:00:00;0;NÃO SE APLICA;NÃO SE APLICA;65994;129130
2017;CIÊNCIAS EXATAS E DA TERRA;2;CIÊNCIA DA COMPUTAÇÃO;UFSC;UNIVERSIDADE FEDERAL DE SANTA CATARINA;FEDERAL;PÚBLICA;ACADÊMICO;MESTRADO/DOUTORADO;41001010025P2;CIÊNCIAS DA COMPUTAÇÃO;SUL;SC;FLORIANÓPOLIS;5;5;541102;RICK LOPES DE SOUZA;BRASIL;BRASILEIRO;MASCULINO;BRANCA;NÃO;30 A 34 ANOS;DOUTORADO;NÃO;MATRICULADO;03Aug2015 0:00:00;03Aug2015 0:00:00;0;NÃO SE APLICA;NÃO SE APLICA;65994;129130
2017;CIÊNCIAS EXATAS E DA TERRA;2;CIÊNCIA DA COMPUTAÇÃO;UFSC;UNIVERSIDADE FEDERAL DE SANTA CATARINA;FEDERAL;PÚBLICA;ACADÊMICO;MESTRADO/DOUTORADO;41001010025P2;CIÊNCIAS DA COMPUTAÇÃO;SUL;SC;FLORIANÓPOLIS;5;5;963303;ROBERTO MILTON SCHEFFEL;BRASIL;BRASILEIRO;MASCULINO;BRANCA;NÃO;45 A 49 ANOS;DOUTORADO;NÃO;MATRICULADO;08Aug2016 0:00:00;08Aug2016 0:00:00;0;NÃO SE APLICA;NÃO SE APLICA;65994;129130
2017;CIÊNCIAS EXATAS E DA TERRA;2;CIÊNCIA DA COMPUTAÇÃO;UFSC;UNIVERSIDADE FEDERAL DE SANTA CATARINA;FEDERAL;PÚBLICA;ACADÊMICO;MESTRADO/DOUTORADO;41001010025P2;CIÊNCIAS DA COMPUTAÇÃO;SUL;SC;FLORIANÓPOLIS;5;5;807779;ROBERTO PANERAI VELLOSO;BRASIL;BRASILEIRO;MASCULINO;BRANCA;NÃO;35 A 39 ANOS;DOUTORADO;NÃO;MATRICULADO;02Mar2015 0:00:00;02Mar2015 0:00:00;0;NÃO SE APLICA;NÃO SE APLICA;65994;129130
2017;CIÊNCIAS EXATAS E DA TERRA;2;CIÊNCIA DA COMPUTAÇÃO;UFSC;UNIVERSIDADE FEDERAL DE SANTA CATARINA;FEDERAL;PÚBLICA;ACADÊMICO;MESTRADO/DOUTORADO;41001010025P2;CIÊNCIAS DA COMPUTAÇÃO;SUL;SC;FLORIANÓPOLIS;5;5;1448286;RODOLFO LORBIESKI;BRASIL;BRASILEIRO;MASCULINO;BRANCA;NÃO;25 A 29 ANOS;MESTRADO;NÃO;MATRICULADO;02Mar2015 0:00:00;02Mar2015 0:00:00;0;NÃO SE APLICA;NÃO SE APLICA;65994;129130
2017;CIÊNCIAS EXATAS E DA TERRA;2;CIÊNCIA DA COMPUTAÇÃO;UFSC;UNIVERSIDADE FEDERAL DE SANTA CATARINA;FEDERAL;PÚBLICA;ACADÊMICO;MESTRADO/DOUTORADO;41001010025P2;CIÊNCIAS DA COMPUTAÇÃO;SUL;SC;FLORIANÓPOLIS;5;5;2083025;RODOLFO WILVERT REITZ;BRASIL;BRASILEIRO;MASCULINO;BRANCA;NÃO;25 A 29 ANOS;MESTRADO;NÃO;MATRICULADO;02Mar2015 0:00:00;02Mar2015 0:00:00;0;NÃO SE APLICA;NÃO SE APLICA;65994;129130
2017;CIÊNCIAS EXATAS E DA TERRA;2;CIÊNCIA DA COMPUTAÇÃO;UFSC;UNIVERSIDADE FEDERAL DE SANTA CATARINA;FEDERAL;PÚBLICA;ACADÊMICO;MESTRADO/DOUTORADO;41001010025P2;CIÊNCIAS DA COMPUTAÇÃO;SUL;SC;FLORIANÓPOLIS;5;5;2518954;RODRIGO EXTERKOETTER;BRASIL;BRASILEIRO;MASCULINO;BRANCA;NÃO;25 A 29 ANOS;MESTRADO;NÃO;MATRICULADO;08Aug2016 0:00:00;08Aug2016 0:00:00;0;NÃO SE APLICA;NÃO SE APLICA;65994;129130
2017;CIÊNCIAS EXATAS E DA TERRA;2;CIÊNCIA DA COMPUTAÇÃO;UFSC;UNIVERSIDADE FEDERAL DE SANTA CATARINA;FEDERAL;PÚBLICA;ACADÊMICO;MESTRADO/DOUTORADO;41001010025P2;CIÊNCIAS DA COMPUTAÇÃO;SUL;SC;FLORIANÓPOLIS;5;5;135908;RODRIGO GONCALVES;BRASIL;BRASILEIRO;MASCULINO;BRANCA;NÃO;35 A 39 ANOS;DOUTORADO;NÃO;MATRICULADO;14Mar2016 0:00:00;14Mar2016 0:00:00;0;NÃO SE APLICA;NÃO SE APLICA;65994;129130
2017;CIÊNCIAS EXATAS E DA TERRA;2;CIÊNCIA DA COMPUTAÇÃO;UFSC;UNIVERSIDADE FEDERAL DE SANTA CATARINA;FEDERAL;PÚBLICA;ACADÊMICO;MESTRADO/DOUTORADO;41001010025P2;CIÊNCIAS DA COMPUTAÇÃO;SUL;SC;FLORIANÓPOLIS;5;5;1978958;RODRIGO RODRIGUES PIRES DE MELLO;BRASIL;BRASILEIRO;MASCULINO;BRANCA;NÃO;25 A 29 ANOS;MESTRADO;SIM;MATRICULADO;06Mar2017 0:00:00;06Mar2017 0:00:00;0;NÃO SE APLICA;NÃO SE APLICA;65994;129130
2017;CIÊNCIAS EXATAS E DA TERRA;2;CIÊNCIA DA COMPUTAÇÃO;UFSC;UNIVERSIDADE FEDERAL DE SANTA CATARINA;FEDERAL;PÚBLICA;ACADÊMICO;MESTRADO/DOUTORADO;41001010025P2;CIÊNCIAS DA COMPUTAÇÃO;SUL;SC;FLORIANÓPOLIS;5;5;1129713;RUDIMAR IMHOF;BRASIL;BRASILEIRO;MASCULINO;NÃO DECLARADO;NÃO;30 A 34 ANOS;MESTRADO;NÃO;ABANDONOU;14Mar2016 0:00:00;23Oct2017 0:00:00;0;NÃO SE APLICA;NÃO SE APLICA;65994;129130
2017;CIÊNCIAS EXATAS E DA TERRA;2;CIÊNCIA DA COMPUTAÇÃO;UFSC;UNIVERSIDADE FEDERAL DE SANTA CATARINA;FEDERAL;PÚBLICA;ACADÊMICO;MESTRADO/DOUTORADO;41001010025P2;CIÊNCIAS DA COMPUTAÇÃO;SUL;SC;FLORIANÓPOLIS;5;5;2525745;SAMUEL ANTONIO MIQUIRICE DOMINGOS;BRASIL;BRASILEIRO;MASCULINO;PRETA;NÃO;30 A 34 ANOS;MESTRADO;NÃO;MATRICULADO;08Aug2016 0:00:00;08Aug2016 0:00:00;0;NÃO SE APLICA;NÃO SE APLICA;65994;129130
2017;CIÊNCIAS EXATAS E DA TERRA;2;CIÊNCIA DA COMPUTAÇÃO;UFSC;UNIVERSIDADE FEDERAL DE SANTA CATARINA;FEDERAL;PÚBLICA;ACADÊMICO;MESTRADO/DOUTORADO;41001010025P2;CIÊNCIAS DA COMPUTAÇÃO;SUL;SC;FLORIANÓPOLIS;5;5;2638511;SHEINY FABRE ALMEIDA;BRASIL;BRASILEIRO;MASCULINO;BRANCA;NÃO;25 A 29 ANOS;MESTRADO;SIM;MATRICULADO;06Mar2017 0:00:00;06Mar2017 0:00:00;0;NÃO SE APLICA;NÃO SE APLICA;65994;129130
2017;CIÊNCIAS EXATAS E DA TERRA;2;CIÊNCIA DA COMPUTAÇÃO;UFSC;UNIVERSIDADE FEDERAL DE SANTA CATARINA;FEDERAL;PÚBLICA;ACADÊMICO;MESTRADO/DOUTORADO;41001010025P2;CIÊNCIAS DA COMPUTAÇÃO;SUL;SC;FLORIANÓPOLIS;5;5;2083003;TACIANE MARTIMIANO;BRASIL;BRASILEIRO;FEMININO;BRANCA;NÃO;20 A 24 ANOS;DOUTORADO;SIM;MATRICULADO;06Mar2017 0:00:00;06Mar2017 0:00:00;0;NÃO SE APLICA;NÃO SE APLICA;65994;129130
2017;CIÊNCIAS EXATAS E DA TERRA;2;CIÊNCIA DA COMPUTAÇÃO;UFSC;UNIVERSIDADE FEDERAL DE SANTA CATARINA;FEDERAL;PÚBLICA;ACADÊMICO;MESTRADO/DOUTORADO;41001010025P2;CIÊNCIAS DA COMPUTAÇÃO;SUL;SC;FLORIANÓPOLIS;5;5;2083003;TACIANE MARTIMIANO;BRASIL;BRASILEIRO;FEMININO;BRANCA;NÃO;20 A 24 ANOS;MESTRADO;NÃO;TITULADO;02Mar2015 0:00:00;22Feb2017 0:00:00;24;DISTRIBUTED ATTACKER: AN ATTACKER TYPE PROPOSAL FOR SECURITY CEREMONIES;JEAN EVERSON MARTINA;65994;129130
2017;CIÊNCIAS EXATAS E DA TERRA;2;CIÊNCIA DA COMPUTAÇÃO;UFSC;UNIVERSIDADE FEDERAL DE SANTA CATARINA;FEDERAL;PÚBLICA;ACADÊMICO;MESTRADO/DOUTORADO;41001010025P2;CIÊNCIAS DA COMPUTAÇÃO;SUL;SC;FLORIANÓPOLIS;5;5;2369490;TARCISIO EDUARDO MOREIRA CROCOMO;BRASIL;BRASILEIRO;MASCULINO;NÃO DECLARADO;NÃO;20 A 24 ANOS;MESTRADO;NÃO;ABANDONOU;03Aug2015 0:00:00;05Jun2017 0:00:00;0;NÃO SE APLICA;NÃO SE APLICA;65994;129130
2017;CIÊNCIAS EXATAS E DA TERRA;2;CIÊNCIA DA COMPUTAÇÃO;UFSC;UNIVERSIDADE FEDERAL DE SANTA CATARINA;FEDERAL;PÚBLICA;ACADÊMICO;MESTRADO/DOUTORADO;41001010025P2;CIÊNCIAS DA COMPUTAÇÃO;SUL;SC;FLORIANÓPOLIS;5;5;567089;THAISA CARDOSO LACERDA;BRASIL;BRASILEIRO;FEMININO;BRANCA;NÃO;25 A 29 ANOS;MESTRADO;NÃO;MATRICULADO;14Mar2016 0:00:00;14Mar2016 0:00:00;0;NÃO SE APLICA;NÃO SE APLICA;65994;129130
2017;CIÊNCIAS EXATAS E DA TERRA;2;CIÊNCIA DA COMPUTAÇÃO;UFSC;UNIVERSIDADE FEDERAL DE SANTA CATARINA;FEDERAL;PÚBLICA;ACADÊMICO;MESTRADO/DOUTORADO;41001010025P2;CIÊNCIAS DA COMPUTAÇÃO;SUL;SC;FLORIANÓPOLIS;5;5;1134189;THIAGO ANGELO GELAIM;BRASIL;BRASILEIRO;MASCULINO;BRANCA;NÃO;25 A 29 ANOS;DOUTORADO;NÃO;MATRICULADO;08Mar2016 0:00:00;08Mar2016 0:00:00;0;NÃO SE APLICA;NÃO SE APLICA;65994;129130
2017;CIÊNCIAS EXATAS E DA TERRA;2;CIÊNCIA DA COMPUTAÇÃO;UFSC;UNIVERSIDADE FEDERAL DE SANTA CATARINA;FEDERAL;PÚBLICA;ACADÊMICO;MESTRADO/DOUTORADO;41001010025P2;CIÊNCIAS DA COMPUTAÇÃO;SUL;SC;FLORIANÓPOLIS;5;5;634255;THIAGO RATEKE;BRASIL;BRASILEIRO;MASCULINO;BRANCA;NÃO;30 A 34 ANOS;DOUTORADO;NÃO;MATRICULADO;03Aug2015 0:00:00;03Aug2015 0:00:00;0;NÃO SE APLICA;NÃO SE APLICA;65994;129130
2017;CIÊNCIAS EXATAS E DA TERRA;2;CIÊNCIA DA COMPUTAÇÃO;UFSC;UNIVERSIDADE FEDERAL DE SANTA CATARINA;FEDERAL;PÚBLICA;ACADÊMICO;MESTRADO/DOUTORADO;41001010025P2;CIÊNCIAS DA COMPUTAÇÃO;SUL;SC;FLORIANÓPOLIS;5;5;2519004;TIAGO AUGUSTO FONTANA;BRASIL;BRASILEIRO;MASCULINO;BRANCA;NÃO;20 A 24 ANOS;MESTRADO;NÃO;MATRICULADO;08Aug2016 0:00:00;08Aug2016 0:00:00;0;NÃO SE APLICA;NÃO SE APLICA;65994;129130
2017;CIÊNCIAS EXATAS E DA TERRA;2;CIÊNCIA DA COMPUTAÇÃO;UFSC;UNIVERSIDADE FEDERAL DE SANTA CATARINA;FEDERAL;PÚBLICA;ACADÊMICO;MESTRADO/DOUTORADO;41001010025P2;CIÊNCIAS DA COMPUTAÇÃO;SUL;SC;FLORIANÓPOLIS;5;5;471405;TIAGO MAZZUTTI;BRASIL;BRASILEIRO;MASCULINO;BRANCA;NÃO;35 A 39 ANOS;DOUTORADO;NÃO;MATRICULADO;02Mar2015 0:00:00;02Mar2015 0:00:00;0;NÃO SE APLICA;NÃO SE APLICA;65994;129130
2017;CIÊNCIAS EXATAS E DA TERRA;2;CIÊNCIA DA COMPUTAÇÃO;UFSC;UNIVERSIDADE FEDERAL DE SANTA CATARINA;FEDERAL;PÚBLICA;ACADÊMICO;MESTRADO/DOUTORADO;41001010025P2;CIÊNCIAS DA COMPUTAÇÃO;SUL;SC;FLORIANÓPOLIS;5;5;2421531;ULDER CARRILHO JUNIOR;BRASIL;BRASILEIRO;MASCULINO;BRANCA;NÃO;35 A 39 ANOS;MESTRADO;NÃO;MATRICULADO;14Mar2016 0:00:00;14Mar2016 0:00:00;0;NÃO SE APLICA;NÃO SE APLICA;65994;129130
2017;CIÊNCIAS EXATAS E DA TERRA;2;CIÊNCIA DA COMPUTAÇÃO;UFSC;UNIVERSIDADE FEDERAL DE SANTA CATARINA;FEDERAL;PÚBLICA;ACADÊMICO;MESTRADO/DOUTORADO;41001010025P2;CIÊNCIAS DA COMPUTAÇÃO;SUL;SC;FLORIANÓPOLIS;5;5;2638525;VANDERSON SANTANA DE OLIVEIRA LEITE SAMPAIO;BRASIL;BRASILEIRO;MASCULINO;BRANCA;NÃO;25 A 29 ANOS;MESTRADO;SIM;MATRICULADO;06Mar2017 0:00:00;06Mar2017 0:00:00;0;NÃO SE APLICA;NÃO SE APLICA;65994;129130
2017;CIÊNCIAS EXATAS E DA TERRA;2;CIÊNCIA DA COMPUTAÇÃO;UFSC;UNIVERSIDADE FEDERAL DE SANTA CATARINA;FEDERAL;PÚBLICA;ACADÊMICO;MESTRADO/DOUTORADO;41001010025P2;CIÊNCIAS DA COMPUTAÇÃO;SUL;SC;FLORIANÓPOLIS;5;5;2519002;VILMAR CESAR PEREIRA JUNIOR;BRASIL;BRASILEIRO;MASCULINO;BRANCA;NÃO;25 A 29 ANOS;MESTRADO;NÃO;MATRICULADO;08Aug2016 0:00:00;08Aug2016 0:00:00;0;NÃO SE APLICA;NÃO SE APLICA;65994;129130
2017;CIÊNCIAS EXATAS E DA TERRA;2;CIÊNCIA DA COMPUTAÇÃO;UFSC;UNIVERSIDADE FEDERAL DE SANTA CATARINA;FEDERAL;PÚBLICA;ACADÊMICO;MESTRADO/DOUTORADO;41001010025P2;CIÊNCIAS DA COMPUTAÇÃO;SUL;SC;FLORIANÓPOLIS;5;5;854585;VINICIUS ANDREOLI PETROLINI;BRASIL;BRASILEIRO;MASCULINO;BRANCA;NÃO;20 A 24 ANOS;MESTRADO;SIM;MATRICULADO;06Mar2017 0:00:00;06Mar2017 0:00:00;0;NÃO SE APLICA;NÃO SE APLICA;65994;129130
2017;CIÊNCIAS EXATAS E DA TERRA;2;CIÊNCIA DA COMPUTAÇÃO;UFSC;UNIVERSIDADE FEDERAL DE SANTA CATARINA;FEDERAL;PÚBLICA;ACADÊMICO;MESTRADO/DOUTORADO;41001010025P2;CIÊNCIAS DA COMPUTAÇÃO;SUL;SC;FLORIANÓPOLIS;5;5;2083013;VINICIUS DA SILVEIRA SEGALIN;BRASIL;BRASILEIRO;MASCULINO;BRANCA;NÃO;25 A 29 ANOS;MESTRADO;NÃO;TITULADO;02Mar2015 0:00:00;15Dec2017 0:00:00;33;UMA ABORDAGEM PERSONALIZADA DE RESERVA ANTECIPADA DE RECURSOS EM BANCOS DE DADOS NA NUVEM;CARINA FRIEDRICH DORNELES;65994;129130
